:100000000C94CB000C94F0330C9421340C945234A7
:100010000C9483340C94B4340C94E5340C9416355D
:100020000C9447350C94F6000C94F6000C94F600F2
:100030000C9423070C94F6000C94F6000C9409061B
:100040000C94F6000C94F6000C94F6000C94F60058
:100050000C94F6000C94F6000C94F6000C94E40555
:100060000C94F6000C94B0300C94F6000C94F6004E
:100070000C94F6000C94F6000C94F6000C94F60028
:100080000C94F6000C94F6000C94F6000C94F60018
:100090000C94F1300C94F6000C94F6000C94903211
:1000A0000C94F6000C94F6000C94F6000C94F600F8
:1000B0000C94F6000C94F6000C94F6000C94F600E8
:1000C0000C94F6000C94F6000C94F6000021242702
:1000D0002A2D3033002225282B2E313400202326D0
:1000E000292C2F3205050505030303030101010433
:1000F00004030606060606060606010405010501B8
:1001000003020202020202010202050504040304C2
:1001100004010304070707010208101020408004AF
:1001200008102040020204081020408001028020B4
:100130004004200101020408102001408040800199
:1001400002080408800410040201000008090000ED
:10015000000000000000000000000000000000009F
:10016000000000000000000000000000000000008F
:100170000000000000000000000000000000C307B5
:10018000EE082709C42F77327E328D328E328F32BD
:100190007835B635BB3511241FBECFEFD1E2DEBFB7
:1001A000CDBF19E0A0E0B2E0EEEBFCE600E00BBF53
:1001B00002C007900D92A034B107D9F71BBE12E11F
:1001C000A0E4B9E001C01D92A23EB107E1F711E041
:1001D000C6E9D1E004C02297FE010E942236CE3744
:1001E000D107C9F70E94DD050C945D360C94000020
:1001F0000F931F93CF93DF93689F8001699F100D2A
:10020000789F100D1124C8010E941401EC01009781
:1002100029F060E070E0A8010E941602CE01DF9193
:10022000CF911F910F910895CF93DF93BC0182303E
:10023000910510F462E070E0A091E012B091E1123B
:10024000ED01E0E0F0E040E050E021C088819981DC
:100250008617970769F48A819B81309719F09383F9
:10026000828304C09093E1128093E012FE0134C0B7
:100270006817790738F44115510519F08417950767
:1002800008F4AC01FE018A819B819C01E901209761
:10029000E9F641155105A9F1CA01861B970B049790
:1002A00008F4BA01E0E0F0E02AC08D919C9111972A
:1002B00084179507F9F46417750781F412968D91E8
:1002C0009C911397309719F09383828304C0909385
:1002D000E1128093E012FD0132964CC0CA01861BE8
:1002E000970BFD01E80FF91F6193719302978D93AE
:1002F0009C9340C0FD01828193819C01D90110979C
:10030000A1F68091DE129091DF12892B41F4809149
:100310003109909132099093DF128093DE1240915F
:100320003309509134094115510541F44DB75EB779
:1003300080912F0990913009481B590B2091DE12B2
:100340003091DF12CA01821B930B8617970780F04A
:10035000AB014E5F5F4F8417950750F0420F531F5C
:100360005093DF124093DE12F9016193719302C042
:10037000E0E0F0E0CF01DF91CF910895CF93DF93DC
:10038000009709F450C0EC0122971B821A82A091B9
:10039000E012B091E112109709F140E050E0AC1783
:1003A000BD0708F1BB83AA83FE0121913191E20FC1
:1003B000F31FAE17BF0779F48D919C911197280F09
:1003C000391F2E5F3F4F3983288312968D919C9160
:1003D00013979B838A834115510571F4D093E112E1
:1003E000C093E01220C012968D919C911397AD019D
:1003F000009711F0DC01D3CFFA01D383C28321919E
:100400003191E20FF31FCE17DF0769F488819981DC
:10041000280F391F2E5F3F4FFA01318320838A81D5
:100420009B8193838283DF91CF910895DC0101C08A
:100430006D9341505040E0F70895AEE0B0E0E3E244
:10044000F2E00C9434360D891E8986E08C831A8381
:1004500009838FEF9FE79E838D839E01275E3F4F29
:10046000CE0101966F89788DA9010E9441022F81EA
:100470003885020F131FF80110822E96E4E00C94C9
:100480005036ABE0B0E0E7E4F2E00C9426363C01F5
:100490002B015A01FC0117821682838181FD03C062
:1004A0006FEF7FEFC6C19AE0892E1E010894211CD0
:1004B000311CF3012381F20123FD859123FF8191FA
:1004C0002F01882309F4B2C1853239F423FD8591C7
:1004D00023FF81912F01853229F490E0B3010E941E
:1004E0003404E7CF982FFF24EE249924FFE1FF1571
:1004F000D0F09B3269F09C3228F4903259F093325C
:1005000091F40EC09D3249F0903369F441E024C06B
:1005100052E0F52A84E0F82A28C098E0F92A25C09C
:10052000E0E1FE2A22C0F7FC29C0892F80538A30DF
:1005300070F4F6FE05C0989C902C1124980E15C0FE
:10054000E89CE02C1124E80EF0E2FF2A0EC09E3257
:1005500029F4F6FC6BC140E4F42A07C09C3619F478
:1005600050E8F52A02C0983649F4F20123FD95912E
:1005700023FF91912F01992309F0B8CF892F85543A
:10058000833018F08052833038F444E050E0A40EF9
:10059000B51E5FE359830FC0933631F0933779F07E
:1005A000933509F056C020C0F5018081898342E06F
:1005B00050E0A40EB51E610101E010E012C0F5018B
:1005C000C080D180F6FC03C06FEF7FEF02C0692DC1
:1005D00070E042E050E0A40EB51EC6010E9429045E
:1005E0008C015FE7F52214C0F501C080D180F6FCD4
:1005F00003C06FEF7FEF02C0692D70E042E050E072
:10060000A40EB51EC6010E941E048C0150E8F52AF6
:10061000F3FE07C01AC080E290E0B3010E943404E8
:10062000EA948E2D90E008171907A8F30EC0F60182
:10063000F7FC8591F7FE81916F0190E0B3010E9474
:100640003404E110EA94015010400115110579F7C6
:10065000EAC0943611F0993669F5F7FE08C0F50145
:10066000208131814281538184E090E00AC0F5010C
:10067000808191819C01442737FD4095542F82E071
:1006800090E0A80EB91E9FE6F92257FF09C05095C9
:100690004095309521953F4F4F4F5F4FE0E8FE2A40
:1006A000CA01B901A1012AE030E00E946004D82EFD
:1006B000D21840C0953729F41F2D1F7E2AE030E064
:1006C0001DC01F2D197F9F3661F0903720F498359B
:1006D00009F0ACC00FC0903739F0983709F0A6C0C8
:1006E00004C028E030E00AC0106114FD146020E16D
:1006F00030E004C014FD166020E132E017FF08C0AE
:10070000F501608171818281938144E050E008C0ED
:10071000F50180819181BC0180E090E042E050E0F1
:10072000A40EB51EA1010E946004D82ED2188FE736
:10073000F82EF122F6FE0BC05EEFF522D91438F444
:10074000F4FE07C0F2FC05C08FEEF82202C01D2D9A
:1007500001C0192DF4FE0DC0FE01ED0DF11D8081CB
:10076000803319F499EEF92208C01F5FF2FE05C02C
:1007700003C08F2D867809F01F5F0F2DF3FC14C086
:10078000F0FE0FC01E1510F09D2C0BC09D2C9E0C72
:10079000911A1E2D06C080E290E0B3010E9434043D
:1007A0001F5F1E15C0F304C01E1510F4E11A01C02E
:1007B000EE2404FF0FC080E390E0B3010E943404F4
:1007C00002FF1DC001FD03C088E790E00EC088E570
:1007D00090E00BC0802F867891F001FF02C08BE281
:1007E00001C080E2F7FC8DE290E0B3010E94340486
:1007F00006C080E390E0B3010E9434049A94D914B7
:10080000C0F3DA94F101ED0DF11D808190E0B301A8
:100810000E943404DD20A9F706C080E290E0B30115
:100820000E943404EA94EE20C1F743CEF3016681BE
:100830007781CB012B96E2E10C944236FC010590C6
:10084000615070400110D8F7809590958E0F9F1FD2
:100850000895FC016150704001900110D8F7809517
:1008600090958E0F9F1F08950F931F93CF93DF9343
:100870008C01EB018B8181FF1BC082FF0DC02E819B
:100880003F818C819D812817390764F4E881F981C3
:100890000193F983E88306C0E885F985802F0995DF
:1008A000892B31F48E819F8101969F838E8302C0B4
:1008B0000FEF1FEFC801DF91CF911F910F910895A6
:1008C000FA01AA27283051F1203181F1E8946F9381
:1008D0006E7F6E5F7F4F8F4F9F4FAF4FB1E03ED027
:1008E000B4E03CD0670F781F891F9A1FA11D680FC5
:1008F000791F8A1F911DA11D6A0F711D811D911DF8
:10090000A11D20D009F468943F912AE0269F11246C
:100910003019305D3193DEF6CF010895462F4770D0
:10092000405D4193B3E00FD0C9F7F6CF462F4F702B
:10093000405D4A3318F0495D31FD4052419302D089
:10094000A9F7EACFB4E0A69597958795779567952F
:10095000BA95C9F700976105710508959B01AC012F
:100960000A2E06945795479537952795BA95C9F756
:10097000620F731F841F951FA01D08950F931F936F
:100980008AE49BE060E072E00E9481098EE49BE0D3
:100990000E94352E09E01AE0C80161E172E00E9470
:1009A00026084091710C552747FD5095652F752FEE
:1009B000C8012AE030E00E941B0868EB7BE080E081
:1009C00090E00E9446061F910F9108950F931F9388
:1009D000CF93DF938EE49BE063E041E021E00E944F
:1009E00037308EE49BE00E94882F8EE49BE060E12C
:1009F0000E94532F8091280D882329F48AE49BE0DC
:100A000066E272E004C08AE49BE065E372E00E9463
:100A100081098EE49BE069E379E00E942B2D8091AF
:100A2000280D882329F48AE49BE062E572E004C083
:100A30008AE49BE06FE572E00E9481098EE49BE00E
:100A400061E00E942F2F8091280D882329F48AE4E9
:100A50009BE06AE772E004C08AE49BE06BE872E026
:100A60000E94810960913509709136098EE49BE0FE
:100A70000E94EA2C8091280D882329F48AE49BE0C7
:100A800069EA72E004C08AE49BE064EB72E00E94D1
:100A9000810960913709709138098EE49BE00E94CA
:100AA000AC2A8091280D882329F48AE49BE06CEC21
:100AB00072E004C08AE49BE068ED72E00E94810964
:100AC0008EE49BE00E94182E8091280D882329F443
:100AD0008AE49BE066EF72E004C08AE49BE068E091
:100AE00073E00E948109C0E0D0E08EE49BE00E94A8
:100AF000C02E813049F4C430D10531F08EE49BE042
:100B00000E94C02E2196F1CF40913B0950913C09A3
:100B10008AE09AE063E57BE024E00E942C084091A3
:100B20003D0950913E098AE09AE06FE47BE024E0C1
:100B30000E942C088DB79EB70E970FB6F8949EBFF3
:100B40000FBE8DBFEDB7FEB7319600E419E0ADB72B
:100B5000BEB712961C930E93119783E293E0938392
:100B6000828380913B0990913C0995838483809195
:100B70003D0990913E099783868385E290E09187B5
:100B800080878DE090E0938782878AE090E0958768
:100B900084870E941D028DB79EB70E960FB6F894FB
:100BA0009EBF0FBE8DBF8AE49BE0B8010E94810901
:100BB000DF91CF911F910F9108950E948E060E94A0
:100BC000E6040E94BE04FDCF1F920F920FB60F9253
:100BD00011248F939F93AF93BF9380915610909160
:100BE0005710A0915810B09159100196A11DB11D38
:100BF0008093561090935710A0935810B0935910AB
:100C0000BF91AF919F918F910F900FBE0F901F904A
:100C100018951F920F920FB60F9211248F939F93E6
:100C2000AF93BF9380915A1090915B10A0915C108C
:100C3000B0915D100196A11DB11D80935A10909343
:100C40005B10A0935C10B0935D10BF91AF919F912A
:100C50008F910F900FBE0F901F90189560915610B6
:100C600070915710809158109091591027E0660F9D
:100C7000771F881F991F2A95D1F72EE330E040E0B7
:100C800050E00E94E335CA01B9010895AF92BF92C6
:100C9000CF92DF92EF92FF920F931F935B016C0153
:100CA0006091561070915710809158109091591082
:100CB00047E0660F771F881F991F4A95D1F72EE3EB
:100CC00030E040E050E00E94E33579018A01609114
:100CD000561070915710809158109091591037E02C
:100CE000660F771F881F991F3A95D1F72EE330E0E2
:100CF00040E050E00E94E3352E193F09400B510BB4
:100D00002A153B054C055D0510F31F910F91FF90CF
:100D1000EF90DF90CF90BF90AF900895789484B714
:100D2000877F84BF1092561010925710109258105F
:100D30001092591084B5826084BD84B5816084BDF1
:100D400085B5826085BD85B5816085BDEEE6F0E044
:100D5000808181608083E1E8F0E08081826080832F
:100D6000808181608083E0E8F0E080818160808321
:100D7000E1EBF0E0808184608083E1E9F0E0808154
:100D800084608083E0EBF0E0808181608083E0E933
:100D9000F0E0808181608083E4E6F0E080818E7FF6
:100DA0008083ECE7F0E080818F77808380818064AE
:100DB0008083EAE7F0E080818460808380818260C4
:100DC00080838081806880831092C1001092C90066
:100DD00008959091080A982B9093080A80FF32C0DA
:100DE000809164008E7F8093640080917C008F7777
:100DF00080937C0080917C00806480937C00809153
:100E00007A00846080937A0080917A008260809377
:100E10007A0080917A00806880937A0080916400E3
:100E20008F7780936400809164008B7F809364004F
:100E3000809164008D7F80936400809165008E7F37
:100E40008093650008951F920F920FB60F920BB614
:100E50000F9211242F933F934F935F936F937F9340
:100E60008F939F93AF93BF93EF93FF93F89481E099
:100E700080933F09E0E6F0E0808180688083808194
:100E80008F7B808383E060E00E9478077894FF91F5
:100E9000EF91BF91AF919F918F917F916F915F91F2
:100EA0004F913F912F910F900BBE0F900FBE0F905F
:100EB0001F901895282F30E0C901895E9E4FFC01D4
:100EC00094912C513F4FF9018491882381F0E82FB0
:100ED000F0E0E453FF4FE491F0E0662329F48081D1
:100EE00090958923808308958081892B808308953C
:100EF000482F50E0CA01865B9E4FFC012491CA0135
:100F0000895E9E4FFC0194914C515F4FFA013491E0
:100F10003323C1F1222331F1233021F48091800069
:100F20008F7705C0243031F4809180008F7D8093CD
:100F3000800018C0213019F484B58F7704C02230A6
:100F400021F484B58F7D84BD0DC0263021F48091BD
:100F5000B0008F7705C0273029F48091B0008F7DD5
:100F60008093B000E32FF0E0EC52FF4FE491F0E00B
:100F7000662329F480819095892380830895808158
:100F8000892B808308951092090A08950F931F9367
:100F90008C018DE0F80160810E9432318AE0F80115
:100FA00060810E9432311F910F910895EF92FF925C
:100FB0000F931F93CF93DF93EC017A018B0177FF9F
:100FC0000CC08DE268810E94323110950095F0943A
:100FD000E094E11CF11C011D111DC801B7012AE0BC
:100FE00030E040E050E008810E945931DF91CF911C
:100FF0001F910F91FF90EF9008950F931F93FC01A5
:10100000DA018B012115310529F4842F60810E94BA
:1010100032310EC02A30310519F40E94D60708C0BB
:1010200030E040E050E0BD01C80100810E9459312C
:101030001F910F9108950F931F938C010E94FD073C
:10104000C8010E94C6071F910F910895FC01CB01B2
:1010500060810E94433108950F931F93CF93DF93D4
:101060008B01BA01DA0140E050E0C22FD0E019C094
:10107000F801E40FF51F8081982F92959F708F7073
:101080009A3010F4905D01C0995C9C938A3010F402
:10109000805D01C0895C11968C9311974F5F5F4F03
:1010A00012964C175D0724F3CC0FDD1FC60FD71F18
:1010B0001882DF91CF911F910F9108956833A1F1AC
:1010C000693380F4643341F1653338F4623301F1FC
:1010D000633300F56133D1F417C0663309F1673328
:1010E00008F51CC0633441F1643438F4613401F113
:1010F000623400F5693351F419C0653409F165347F
:10110000E8F0663419F41EC081E01DC080E01BC009
:1011100082E019C083E017C084E015C085E013C0E9
:1011200086E011C087E00FC088E00DC089E00BC0E9
:101130008AE009C08BE007C08CE005C08DE003C0E9
:101140008EE001C08FE04733A1F1483380F4433390
:1011500041F1443338F44133F1F0423300F5403388
:10116000E1F51BC0453309F1463308F51CC0423494
:1011700041F1433438F4493301F14933E0F041346B
:1011800061F51DC0443409F14434E8F04534F9F008
:101190004634F9F0089591E01DC090E01BC092E044
:1011A00019C093E017C094E015C095E013C096E015
:1011B00011C097E00FC098E00DC099E00BC09AE015
:1011C00009C09BE007C09CE005C09DE003C09EE015
:1011D00001C09FE08295807F890F089508958FE276
:1011E00061E00E945A0784E261E00E945A0785E2AA
:1011F00061E00E945A078FE261E00E94780784E272
:1012000061E00E94780785E261E00E947807089516
:101210000F931F93162F042F8FE261E00E945A074D
:1012200084E261E00E945A0785E261E00E945A0769
:101230008FE261E00E94780784E2612F0E947807C4
:1012400085E2602F0E9478071F910F9108951092F8
:101250004A0B10924C0B08950F931F938C018DE055
:10126000F80160810E9432318AE0F80160810E94B9
:1012700032311F910F910895EF92FF920F931F93B8
:10128000CF93DF93EC017A018B0177FF0CC08DE2E5
:1012900068810E94323110950095F094E094E11C31
:1012A000F11C011D111DC801B7012AE030E040E02A
:1012B00050E008810E945931DF91CF911F910F9129
:1012C000FF90EF9008950F931F93FC01DA018B01BB
:1012D0002115310529F4842F60810E9432310EC01E
:1012E0002A30310519F40E943C0908C030E040E082
:1012F00050E0BD01C80100810E9459311F910F913A
:1013000008950F931F938C01CB01F80160810E9417
:101310004331C8010E942C091F910F910895FC01CF
:1013200080810E949C300895FC0180810E94613080
:101330000895FC0180810E943D300895FC01618385
:10134000613019F0633099F514C08081882311F45D
:1013500086E10DC086E061E00E945A0786E061E008
:101360000E9478078AE261E00E945A078AE261E0FF
:1013700005C08081882329F486E160E00E94780717
:1013800008958AE09AE060E040E00E94080986E063
:1013900061E00E945A0786E060E00E9478078AE2D6
:1013A00061E00E945A078AE260E00E94780708958F
:1013B000FC01262F608360E070E0CB01BA01422F70
:1013C0000E94FB3186E161E00E945A0708950F9365
:1013D0001F93CF93DF93DC018B01EC01C658DD4FE7
:1013E0001982188240E0BE0106C04F5F2F5F3F4F59
:1013F000FB0131832083FB0120813181F801E20F61
:10140000F31F8081882389F7469583E090E09983D4
:10141000888390E0ED01C658DD4F50E00BC0FD0120
:10142000E20FF31FE857FD4F8081980F2F5F3F4F6A
:1014300039832883288139812417350780F3892F40
:101440008095A40FB51FA957BD4F8C93DF91CF9105
:101450001F910F910895DF92EF92FF920F931F93C8
:10146000CF93DF93890180E090E0F3E1DF2EEEE798
:10147000EE2E31E1F32E37C02F5F3F4F9C919D3709
:1014800031F01196319624173507B0F32DC024178B
:10149000350750F5E9012196E60FF71F8181833367
:1014A00061F0843318F4813369F405C08D3549F057
:1014B0008E3541F404C0FC9205C0DC9203C0EC926E
:1014C00001C09C9341505040F901E00FF11FE60F1D
:1014D000F71F02C0818180832F5F3F4F3196CE017D
:1014E00024173507B8F39C012417350738F4F901A0
:1014F000E00FF11FDB01AE0FBF1FC0CFDF91CF9117
:101500001F910F91FF90EF90DF900895EF92FF925F
:101510000F931F93CF93DF938C01EB017A01FC01B2
:10152000E658FD4F2D5F3F4F3183208323503040DD
:10153000A0E0B0E0AF010BC0FE01E60FF71F808115
:10154000A80FB11D6F5F7F4FFA0171836083FA01AD
:10155000608171816E157F0578F3AF3FB10521F091
:10156000AF3F11F081E008C008521E4FC20FD31FD9
:101570008C81F801808380E0DF91CF911F910F91E2
:10158000FF90EF900895EF92FF920F931F93CF93E8
:10159000DF93EC01CA5BDD4FE8808DEEE80E249707
:1015A0008881C254D240813009F0C9C0CD5DDE4F80
:1015B000F880C352D140FA948E0106581D4FD801CD
:1015C0001D921C92B8012F2D30E087E290E0289FF9
:1015D000A001299F500D389F500D11244C0F5D1F05
:1015E00011C0FA01EA0FFB1FE05AFF4FAC0FBD1FFD
:1015F000A85BBD4F8C918083FB0180819181019616
:1016000091838083FB01A081B181A230B10548F3B1
:10161000D8011D921C92AE0146585D4F2F2D30E02F
:1016200087E290E0289FB001299F700D389F700DD0
:1016300011246C0F7D1F11C0FB01EA0FFB1FEE5937
:10164000FF4FAC0FBD1FA65BBD4F8C918083FA018D
:1016500080819181019691838083FA01A081B1817B
:10166000A430B10548F311821082BE0166587D4F47
:101670002F2D30E087E290E0289FA001299F500D98
:10168000389F500D11244C0F5D1F12C0FA01EA0F54
:10169000FB1FEA59FF4FAC0FBD1FA25BBD4F8C91E2
:1016A0008083DB018D919C91119701968D939C9382
:1016B000FB01A081B181A430B10540F387E290E045
:1016C000289FF001299FF00D389FF00D1124EC0F99
:1016D000FD1FEA57FF4FCE5ADD4F8881C255D240D9
:1016E0008083E658F040AE014A5B5D4FDA018D9190
:1016F0009C910D9720F1DB011D921C929E012658B2
:101700003D4FBA01AF0111C0FA01EA0FFB1FE659C4
:10171000FF4FAC0FBD1FAD5ABD4F8C918083F901B7
:1017200080819181019691838083F901A081B181AB
:10173000FB01808191810C97A817B90728F3CE5B34
:10174000DD4F8881C254D2408250843008F047C1B6
:10175000CD5DDE4FF880C352D140FA948E01065819
:101760001D4FD8011D921C92B8012F2D30E087E249
:1017700090E0289FA001299F500D389F500D112403
:101780004C0F5D1F11C0FA01EA0FFB1FE05AFF4F1B
:10179000AC0FBD1FA85BBD4F8C918083FB01808186
:1017A0009181019691838083FB01A081B181A23058
:1017B000B10548F3D8011D921C92AE0146585D4F09
:1017C0002F2D30E087E290E0289FB001299F700D17
:1017D000389F700D11246C0F7D1F11C0FB01EA0FA3
:1017E000FB1FEE59FF4FAC0FBD1FA65BBD4F8C9189
:1017F0008083FA0180819181019691838083FA012F
:10180000A081B181A430B10548F311821082AE01EC
:1018100046585D4F2F2D30E087E290E0289FB001C1
:10182000299F700D389F700D11246C0F7D1F12C001
:10183000FB01EA0FFB1FEA59FF4FAC0FBD1FA25B74
:10184000BD4F8C918083DA018D919C911197019607
:101850008D939C93FA01A081B181A430B10540F32E
:1018600011821082AE0146585D4F0E2D10E02F2DD3
:1018700030E087E290E0289FB001299F700D389FEB
:10188000700D11246C0F7D1F12C0FB01EA0FFB1FAE
:10189000E659FF4FAC0FBD1FAE5ABD4F8C918083F0
:1018A000DA018D919C91119701968D939C93FA0189
:1018B000A081B181A017B10740F311821082BE014F
:1018C00066587D4F2F2D30E087E290E0289FA001E1
:1018D000299F500D389F500D11244C0F5D1F14C0CF
:1018E000FA01EA0FFB1FE258FF4FAC0FBD1FA00F1C
:1018F000B11FAD5ABD4F8C918083DB018D919C91BE
:10190000119701968D939C93FB01A081B181A23028
:10191000B10530F387E290E0289FD001299FB00DF8
:10192000389FB00D1124AC0FBD1FA058BF4FFE0152
:10193000EE0DF11DEB5AFD4F81918D9380818C93BB
:10194000A158B040FB0111821082AE0146585D4F94
:10195000BD0114C0FB01EA0FFB1FEE57FF4FAC0F98
:10196000BD1FA00FB11FA95ABD4F8C918083DA0112
:101970008D919C91119701968D939C93FA01A08172
:10198000B181A230B10530F311821082BE016658D8
:101990007D4F87E290E0289FA001299F500D389F3E
:1019A000500D11244C0F5D1F14C0FA01EA0FFB1FEC
:1019B000EC57FF4FAC0FBD1FA00FB11FA75ABD4F73
:1019C0008C918083DB018D919C91119701968D9371
:1019D0009C93FB01A081B181A230B10530F3DF916E
:1019E000CF911F910F91FF90EF900895CF92DF92CA
:1019F000EF92FF920F931F93CF93DF93EC016B0154
:101A00007A01B901FC01E658FD4F0D5F1F4F1183AC
:101A1000008303501040A0E0B0E09F010BC0F6012E
:101A2000E40FF51F8081A80FB11D4F5F5F4FF901D3
:101A300051834083F901408151814617570778F35C
:101A4000AF3FB10519F0AF3F09F05AC0F601E00F02
:101A5000F11F9581D70115968C911597981709F06C
:101A60004FC0968116968C91981709F049C09B013A
:101A7000201B310B2930310529F48781882309F493
:101A800042C03EC087818823D9F5FE01E658FD4F4C
:101A900011821082BF012950304012C0FE01E40FB4
:101AA000F51FE85BFD4FD601A40FB51FA00FB11FB6
:101AB00018968C9180834F5F5F4FFB015183408369
:101AC000DB014D915C914217530740F3CA5BDD4F38
:101AD00039832883C654D240F70185818E3491F42E
:101AE0008681843479F42230310530F0FE01ED5DD9
:101AF000FE4F80818F5F8083CE010E94C30A02C0A7
:101B000081E001C080E0DF91CF911F910F91FF90A4
:101B1000EF90DF90CF900895FC01E658FD4F1182C1
:101B20001082DF010BC0FC01E20FF31FE857FD4FED
:101B300010822F5F3F4F11963C932E932D913C9135
:101B400011972E31310578F30895CF92DF92EF92FD
:101B5000FF920F931F93CF93DF936C01FC01E65824
:101B6000FD4F118210828F01E62EFF24E701CC0F7A
:101B7000DD1FCC0FDD1FCE0DDF1D1CC0EC0FFD1FC8
:101B80003B96EE0FFF1FEC0DFD1D808191810E94A1
:101B9000BE01D8018D919C911197FE01E80FF91FAC
:101BA0003B96EE0FFF1FEC0DFD1D1182108201967A
:101BB0008D939C93D801ED91FC91E530F105F0F205
:101BC0008701000F111F0C0D1D1D075B1F4FD80152
:101BD000ED91FC9115AA16AA17AA10AECF010E948A
:101BE000BE01F80111821082F601ED5AFF4F80818B
:101BF00081508083DF91CF911F910F91FF90EF90E3
:101C0000DF90CF900895AF92BF92CF92DF92FF9274
:101C10000F931F93CF93DF936C01FF2460E070E07C
:101C20008C0106581D4FD8016D937C93EB01AA9649
:101C3000CC0FDD1FCC0DDD1D23C05F010894A11C5E
:101C4000B11CA881B981A555BF4FBB96EE0FFF1FF0
:101C5000EC0DFD1D0190F081E02DE555FF4F2D911C
:101C60003D914D915C9180819181A281B3818217D8
:101C70009307A407B50754F4F394F801B182A08246
:101C8000D801ED91FC91E430F105B8F2B4E0FB1617
:101C900021F4F62E65E070E002C0F62EF3946F5F3B
:101CA0007F4F6530710508F4BECF0F2D10E0065D43
:101CB0001F4F000F111F0C0D1D1DF8018081918118
:101CC0000E94BE01D8011D921C928F2DDF91CF91F1
:101CD0001F910F91FF90DF90CF90BF90AF9008952C
:101CE000AF92BF92CF92DF92FF920F931F93CF9349
:101CF000DF936C01FF2460E070E08C0106581D4FFB
:101D0000D8016D937C93EB01AA96CC0FDD1FCC0D0F
:101D1000DD1D23C05F010894A11CB11CA881B981FD
:101D2000A555BF4FBB96EE0FFF1FEC0DFD1D01909B
:101D3000F081E02DE555FF4F2D913D914D915C9146
:101D400080819181A281B381281739074A075B07F7
:101D500054F4F394F801B182A082D801ED91FC9182
:101D6000E430F105B8F2B4E0FB1621F4F62E65E09C
:101D700070E002C0F62EF3946F5F7F4F65307105FF
:101D800008F4BECF0F2D10E0065D1F4F000F111F8E
:101D90000C0D1D1DF801808191810E94BE01D801AA
:101DA0001D921C928F2DDF91CF911F910F91FF906B
:101DB000DF90CF90BF90AF9008950F931F93CF9374
:101DC000DF938C01FC01E658FD4F11821082EF0178
:101DD00016C0BA96EE0FFF1FE00FF11F80819181B0
:101DE0000E94BE01888199818A96FC01EE0FFF1F37
:101DF000E00FF11F11821082899799838883E8810F
:101E0000F981E530F10528F3DF91CF911F910F9112
:101E10000895AF92BF92CF92DF92EF92FF920F930D
:101E20001F93CF93DF93EC0109E4A02EB12CA80EF1
:101E3000B91EEE24FF241AE7C12E12E0D12EC80EDF
:101E4000D91ED6011D921C928701000F111F000F91
:101E5000111F0E0D1F1D1CC0E00FF11F3B96EE0F52
:101E6000FF1FEC0FFD1F808191810E94BE01F601D2
:101E700080819181F801E80FF91F3B96EE0FFF1F5B
:101E8000EC0FFD1F118210820196D6018D939C9359
:101E9000D601ED91FC91E530F105F0F2D501ED911F
:101EA000FC9115AA16AA17AA10AECF010E94BE0176
:101EB000F501119211925F010894E11CF11CF5E00B
:101EC000EF16F10409F0BDCFCD5ADF4F1882C65A84
:101ED000DD4F188222961882DF91CF911F910F91CA
:101EE000FF90EF90DF90CF90BF90AF900895AF92AA
:101EF000BF92CF92DF92EF92FF920F931F93CF93F7
:101F0000DF93EC01FC01E355FD4F108260E070E0CF
:101F10001AE7A12E12E0B12EA80EB91E7F01D5013D
:101F20006D937C938B01000F111F0C0F1D1F075B1E
:101F30001F4F28C0D8018D919C916F010894C11C3E
:101F4000D11CF601EE0FFF1FEC0FFD1FE75BFF4FEB
:101F50000190F081E02DDC01D5962D913D914D91C0
:101F60005C91D89785A996A9A7A9B0AD281739077C
:101F70004A075B076CF4F70180818F5F8083D5018E
:101F8000CD92DC92D501ED91FC91E430F10590F217
:101F9000F7018081843021F4608365E070E004C043
:101FA000862F8F5FD7018C936F5F7F4F65307105F0
:101FB00008F4B5CFFE01E658FD4F118210828F0163
:101FC0007DEAE72E72E0F72EEC0EFD1E2FC0F70122
:101FD000808190E0FC01EE0FFF1FEE0FFF1FE80F66
:101FE000F91FE20FF31F3B96EE0FFF1FEC0FFD1FD3
:101FF000808191810E94BE01D7018C9190E0FC010B
:10200000EE0FFF1FEE0FFF1FE80FF91FD8018D9194
:102010009C911197E80FF91F3B96EE0FFF1FEC0FF5
:10202000FD1F1182108201968D939C93F8012081EF
:1020300031812530310558F2D701EC91F0E0EE0FF7
:10204000FF1FEC0FFD1FE75BFF4F0190F081E02DBC
:1020500015AA16AA17AA10AEEC91F0E0EE0FFF1F1A
:10206000EC0FFD1FE75BFF4F808191810E94BE0155
:10207000D701EC91F0E0EE0FFF1FEC0FFD1FE75BC7
:10208000FF4F11821082FE01ED5AFF4F8081815077
:102090008083C155DD4F1882DF91CF911F910F9141
:1020A000FF90EF90DF90CF90BF90AF9008952F9268
:1020B0003F924F925F926F927F928F929F92AF92D8
:1020C000BF92CF92DF92EF92FF920F931F93DF9315
:1020D000CF93CDB7DEB760970FB6F894DEBF0FBED3
:1020E000CDBF7C016B01FC01E658FD4F11821082CF
:1020F0002FEA32E0E20EF31ED7018C9121E53DEF8D
:10210000E20EF31E882311F1DF0110C0F901EE0F7A
:10211000FF1FEE0DFF1DE75BFF4F80819181892B33
:1021200059F02F5F3F4F11963C932E932D913C9188
:1021300011972530310550F34DEA52E0E40EF51EBB
:10214000D7012C93E3E5FDEFEE0EFF1E2AE732E008
:10215000E20EF31ED7011D921C92E8ECFFEFEE0E8B
:10216000FF1ED7018C91EEEBFDEFEE0EFF1E8130CE
:1021700079F026E432E0E20EF31ED7018D919C91B6
:10218000EAEBFDEFEE0EFF1E0C9770F50C9451225A
:1021900020E832E0E20EF31ED7018C91E0E8FDEF7B
:1021A000EE0EFF1E882379F426E432E0E20EF31EE1
:1021B000D7018D919C91EAEBFDEFEE0EFF1E059786
:1021C00098F40C945122813079F426E432E0E20E46
:1021D000F31ED7018D919C91EAEBFDEFEE0EFF1EF1
:1021E0000B9710F40C94512200E010E06624882430
:1021F00077249924B70166587D4FE2E44E2EE2E041
:102200005E2E4E0C5F1C51E8252E52E0352E2E0C12
:102210003F1C970120583D4F3E872D87DB011D92C3
:102220001C92F801EE0FFF1FEE0DFF1DE75BFF4F45
:102230000190F081E02D85A996A9A7A9B0AD181647
:1022400019061A061B060CF08CC3D2018C91813042
:1022500009F0D0C1AD85BE858C91882309F0E1C01D
:10226000D60114969C9114978081981709F079C330
:10227000AA24BB2416968C91833219F431E0A32E44
:10228000B12C96012A0D3B1DD90116968C91DB01CC
:102290001D921C928130A9F0813020F0823009F02B
:1022A00088C070C09389D90117968C911797981799
:1022B00009F07FC0948918968C91981709F079C01D
:1022C0007CC0FB0111821082A801440F551F4E0DE6
:1022D0005F1D475B5F4F17C0FA01A081B181A20F5C
:1022E000B31FF601E20FF31FEA0DFB1D1B969C9135
:1022F0008781981719F0882483940BC02F5F3F4F74
:10230000DB012D933C93FB01208131812430310589
:1023100018F3DB011D921C92A801440F551F4E0DAE
:102320005F1D475B5F4F14C0FA01A081B181A20F0E
:10233000B31FF601E20FF31FEA0DFB1D1F969C91E0
:1023400083859817A1F52F5F3F4FDB012D933C93B9
:10235000FB01208131812430310530F325C09927DC
:1023600087FD9095F601E40FF51FEA0DFB1D27810F
:1023700030E082179307D9F44F5F5F4FFB01518321
:10238000408307C0D801AA0FBB1FAE0DBF1DA75BBE
:10239000BF4FFB0140815181ED91FC911197E40FFA
:1023A000F51F85898332D9F6882039F002C0882448
:1023B0008394F1E06F1609F0D4C2702E21E0A216CA
:1023C000B10479F4E02FF0E0EE0FFF1FEE0DFF1DDA
:1023D000E75BFF4F0190F081E02DD60115968C91BF
:1023E00082AFE72DF0E0EE0FFF1FEE0DFF1DE75B64
:1023F000FF4FA081B181DB968C91DB978F5FDB96DD
:102400008C930190F081E02DD60112962C911297B9
:1024100083A994A9820F911D94AB83AB15969C90D0
:10242000E3C0813009F09DC2D6011A969C911A979B
:102430008081981709F095C2AA24BB241C968C9120
:10244000833219F4B1E0AB2EB12C96012A0D3B1D5D
:10245000D9011C968C91DB011D921C928130A9F050
:10246000813020F0823009F088C070C09389D90192
:102470001D968C911D97981709F07FC094891E9620
:102480008C91981709F079C07CC0FB0111821082F1
:10249000A801440F551F4E0D5F1D475B5F4F17C0CE
:1024A000FA01A081B181A20FB31FF601E20FF31F61
:1024B000EA0DFB1D1B969C918585981719F08824C1
:1024C00083940BC02F5F3F4FDB012D933C93FB01A7
:1024D000208131812430310518F3DB011D921C92DB
:1024E000A801440F551F4E0D5F1D475B5F4F14C081
:1024F000FA01A081B181A20FB31FF601E20FF31F11
:10250000EA0DFB1D1F969C9181899817A1F52F5FFD
:102510003F4FDB012D933C93FB012081318124301F
:10252000310530F325C0992787FD9095F601E40F1A
:10253000F51FEA0DFB1D258530E082179307D9F4BE
:102540004F5F5F4FFB015183408307C0D801AA0F43
:10255000BB1FAE0DBF1DA75BBF4FFB01408151816B
:10256000ED91FC911197E40FF51F85898332D9F61F
:10257000882039F002C088248394F1E06F1609F0B6
:10258000F0C1702E21E0A216B10479F4E02FF0E042
:10259000EE0FFF1FEE0DFF1DE75BFF4F0190F08177
:1025A000E02DD6011B968C9182AFE72DF0E0EE0F67
:1025B000FF1FEE0DFF1DE75BFF4FA081B181DB9692
:1025C0008C91DB978F5FDB968C930190F081E02DEF
:1025D000D60118962C91189783A994A9820F911D62
:1025E00094AB83AB1B969C909A94B4E0B91508F019
:1025F000B4C1F8C68250843008F0B3C1D1018C91C7
:10260000882309F0D2C0D6011B969C911B9780812C
:10261000981709F0A6C1AA24BB241D968C91833279
:1026200019F431E0A32EB12C96012A0D3B1DD901DE
:102630001D968C91DB011D921C928130A9F0813096
:1026400020F0823009F088C070C09389D9011E96AD
:102650008C911E97981709F07FC094891F968C91D2
:10266000981709F079C07CC0FB0111821082A80183
:10267000440F551F4E0D5F1D475B5F4F17C0FA019A
:10268000A081B181A20FB31FF601E20FF31FEA0D83
:10269000FB1D1B969C918685981719F088248394BE
:1026A0000BC02F5F3F4FDB012D933C93FB0120813B
:1026B00031812430310518F3DB011D921C92A801F1
:1026C000440F551F4E0D5F1D475B5F4F14C0FA014D
:1026D000A081B181A20FB31FF601E20FF31FEA0D33
:1026E000FB1D1F969C9182899817A1F52F5F3F4F84
:1026F000DB012D933C93FB01208131812430310596
:1027000030F325C0992787FD9095F601E40FF51F5A
:10271000EA0DFB1D268530E082179307D9F44F5F41
:102720005F4FFB015183408307C0D801AA0FBB1F35
:10273000AE0DBF1DA75BBF4FFB0140815181ED91E5
:10274000FC911197E40FF51F85898332D9F6882013
:1027500039F002C088248394F1E06F1609F001C1BA
:10276000702E21E0A216B10479F4E02FF0E0EE0F14
:10277000FF1FEE0DFF1DE75BFF4F0190F081E02D85
:10278000D6011C968C9182AFE72DF0E0EE0FFF1F73
:10279000EE0DFF1DE75BFF4F0190F081E02D83AD53
:1027A0008F5F83AFF6019484D3C0823009F0D9C023
:1027B000D60151969C9151978081981709F0D1C00C
:1027C000AA24BB2453968C91833219F4B1E0AB2E2A
:1027D000B12C96012A0D3B1DD90153968C91DB013A
:1027E0001D921C928130A9F0813020F0823009F0D6
:1027F00088C070C09389D90154968C9154979817CA
:1028000009F07FC0948955968C91981709F079C08A
:102810007BC0FB0111821082A801440F551F4E0D91
:102820005F1D475B5F4F17C0FA01A081B181A20F06
:10283000B31FF601E20FF31FEA0DFB1D1B969C91DF
:102840008489981719F0882483940BC02F5F3F4F19
:10285000DB012D933C93FB01208131812430310534
:1028600018F3DB011D921C92A801440F551F4E0D59
:102870005F1D475B5F4F14C0FA01A081B181A20FB9
:10288000B31FF601E20FF31FEA0DFB1D1F969C918B
:10289000808D9817A1F52F5F3F4FDB012D933C935F
:1028A000FB01208131812430310530F325C0992787
:1028B00087FD9095F601E40FF51FEA0DFB1D2489B5
:1028C00030E082179307D9F44F5F5F4FFB015183CC
:1028D000408307C0D801AA0FBB1FAE0DBF1DA75B69
:1028E000BF4FFB0140815181ED91FC911197E40FA5
:1028F000F51F85898332D9F6882031F002C08824FB
:102900008394F1E06F1669F5702E21E0A216B104F0
:1029100079F4E02FF0E0EE0FFF1FEE0DFF1DE75BF7
:10292000FF4F0190F081E02DD60152968C9182AF3D
:10293000E72DF0E0EE0FFF1FEE0DFF1DE75BFF4FF1
:102940000190F081E02D83AD8F5F83AFF601928817
:102950009A94F4E0F91508F445C505E010E0662402
:1029600063940F5F1F4F0530110508F457CC2AE719
:1029700032E0E20EF31ED7011D921C92E6E8FDEF55
:10298000EE0EFF1E662009F015C6870103551D4F88
:10299000D8017C90EFEAF2E0EE0EFF1E81E0D70155
:1029A0008C93E4EAFDEFEE0EFF1ED7018C91EDEA69
:1029B000FFEFEE0EFF1E853028F0C7010E94770F53
:1029C000D8017C90F701ED5AFF4F80818F5F8083A3
:1029D000A72CBB2481E090E06EE370E00E94F80039
:1029E000FC012501440C551C4E0C5F1C29E430E011
:1029F000420E531ED2018D939C93009709F4F8C5A3
:102A000022E432E0E20EF31ED7018C912EEB3DEF73
:102A1000E20EF31E813009F084C240E852E0E40E79
:102A2000F51ED7018C9120E83DEFE20EF31E8823BE
:102A300009F022C112A6D201ED91FC91D6011496A3
:102A40008C918083F201008111810E942E06D801B1
:102A5000D5966D937D938D939C93D897F701E65807
:102A6000FD4F118210829F01A20111C0FA01608105
:102A700071816A0F7B1FAC0DBD1D8C91DB01199616
:102A80008C93F90180819181019691838083F90172
:102A9000A081B181A230B10548F340E050E0D601F9
:102AA00016968C91833211F441E050E0D501AA0FC3
:102AB000BB1FAE0DBF1DA75BBF4F2D913C91119762
:102AC000B601640F751FFB018681F90181A797018B
:102AD00026583D4FF901118210820D911C911197DA
:102AE000F80181A5813089F0813020F0823009F031
:102AF00089C063C0FB018781F801838BED91FC9154
:102B0000DB0118968C91848B7DC0F90111821082B3
:102B10004901BD0114C0FB01008111810A0F1B1F77
:102B2000AC0DBD1DA40FB51F17968C91D8011B9637
:102B30008C93F40180819181019691838083F401CB
:102B4000A081B181A430B10530F3D9011D921C924E
:102B5000970126583D4FB501660F771F6E0D7F1DFB
:102B6000675B7F4F14C0FB01008111810A0F1B1F9F
:102B7000AC0DBD1DA40FB51F1B968C91D8011F96DF
:102B80008C93F90180819181019691838083F90171
:102B9000A081B181A430B10530F334C0ED91FC9136
:102BA0001197E80FF91F258BFB0180819181019618
:102BB00091838083459710F00CC0B901FB0180819F
:102BC0009181F601E80FF91FE40FF51F27812332E9
:102BD00029F7F501EE0FFF1FEE0DFF1DE75BFF4F1D
:102BE0000190F081E02D2AE732E0E20EF31ED701DA
:102BF0008D919C9126E83DEFE20EF31EE80FF91F40
:102C000083E2858B4130510571F4F501EE0FFF1F12
:102C1000EE0DFF1DE75BFF4F0190F081E02DD60127
:102C200015968C9182AFD501AA0FBB1FAE0DBF1DAB
:102C3000A75BBF4FED91FC91119791E093AFF60127
:102C400095809A94F4E0F91508F4CCC32D913C9149
:102C50001197F6018281F90183AB14AAF6018381F1
:102C6000F90182ABED91FC9182A98150823010F480
:102C700093A7A0C413A69EC4813009F09BC482A769
:102C8000D201ED91FC91D6011A968C918083F201CC
:102C9000008111810E942E06D801D5966D937D93F7
:102CA0008D939C93D897A70146585D4FFA011182E6
:102CB00010829A01B20111C0FB01008111810A0F3B
:102CC0001B1FAC0DBD1D8C91D80115968C93F9017D
:102CD00080819181019691838083F901A081B181E6
:102CE000A430B10548F3DA011D921C9297012658D1
:102CF0003D4FA501440F551F4E0D5F1D475B5F4FB4
:102D000012C0FA01608171816A0F7B1FAC0DBD1D7D
:102D100014968C91DB0111968C93F901808191813D
:102D2000019691838083F901A081B181A430B1051E
:102D300040F360E070E0D6011C968C91833211F470
:102D400061E070E0D501AA0FBB1FAE0DBF1DA75BF0
:102D5000BF4F2D913C911197A601460F571FFA01C5
:102D60008485F90181A7970126583D4FF901118209
:102D700010820D911C911197F80181A5813089F085
:102D8000813020F0823009F089C063C0FA01858566
:102D9000F801838BED91FC91DA011E968C91848B66
:102DA0007DC0F901118210824901AD0114C0FA0100
:102DB000008111810A0F1B1FAC0DBD1DA60FB71F8F
:102DC0001D968C91D8011B968C93F4018081918182
:102DD000019691838083F401A081B181A430B10573
:102DE00030F3D9011D921C92970126583D4FA50141
:102DF000440F551F4E0D5F1D475B5F4F14C0FA0116
:102E0000008111810A0F1B1FAC0DBD1DA60FB71F3E
:102E100051968C91D8011F968C93F90180819181F4
:102E2000019691838083F901A081B181A430B1051D
:102E300030F334C0ED91FC911197E80FF91F258B09
:102E4000FA0180819181019691838083459710F0EA
:102E50000CC0A901FA0180819181F601E80FF91FE8
:102E6000E60FF71F2585233229F7F501EE0FFF1F27
:102E7000EE0DFF1DE75BFF4F0190F081E02D2AE78B
:102E800032E0E20EF31ED7018D919C9126E83DEFD2
:102E9000E20EF31EE80FF91F83E2858BD501AA0F1E
:102EA000BB1FAE0DBF1DA75BBF4F2D913C9111976E
:102EB000F6018085F90183AB14AAF6018185F90139
:102EC00082ABED91FC9182A98150823018F481E0AF
:102ED00083A701C013A66130710571F4F501EE0FEF
:102EE000FF1FEE0DFF1DE75BFF4F0190F081E02D0E
:102EF000D6011B968C9182AFAA0CBB1CAE0CBF1CDA
:102F0000E9E4F0E0AE0EBF1ED501ED91FC9181E049
:102F100083AFF60193849A94F4E0F91508F04AC35C
:102F200061C28250843008F045C321E832E0E20EED
:102F3000F31ED7018C912FE73DEFE20EF31E88239D
:102F400009F066C1D6011B968C918083F201008145
:102F500011810E942E06D801D5966D937D938D9395
:102F60009C93D89740E050E0F6018585833211F4B8
:102F700041E050E0D501AA0FBB1FAE0DBF1DA75BFE
:102F8000BF4F2D913C911197B601640F751FFB0146
:102F90008585F90181A7970126583D4FF9011182D6
:102FA00010820D911C911197F80181A5813089F053
:102FB000813020F0823009F089C063C0FB01868532
:102FC000F801838BED91FC91DB011F968C91848B32
:102FD0007DC0F901118210824901BD0114C0FB01BD
:102FE000008111810A0F1B1FAC0DBD1DA40FB51F61
:102FF0001E968C91D8011B968C93F401808191814F
:10300000019691838083F401A081B181A430B10540
:1030100030F3D9011D921C92970126583D4FB501FE
:10302000660F771F6E0D7F1D675B7F4F14C0FB011E
:10303000008111810A0F1B1FAC0DBD1DA40FB51F10
:1030400052968C91D8011F968C93F90180819181C1
:10305000019691838083F901A081B181A430B105EB
:1030600030F334C0ED91FC911197E80FF91F258BD7
:10307000FB0180819181019691838083459710F0B7
:103080000CC0B901FB0180819181F601E80FF91FA5
:10309000E40FF51F2685233229F7F501EE0FFF1FF8
:1030A000EE0DFF1DE75BFF4F0190F081E02D2AE759
:1030B00032E0E20EF31ED7018D919C9126E83DEFA0
:1030C000E20EF31EE80FF91F83E2858B41305105B4
:1030D00071F4F501EE0FFF1FEE0DFF1DE75BFF4FD3
:1030E0000190F081E02DD6011C968C9182AFD50124
:1030F000AA0FBB1FAE0DBF1DA75BBF4FED91FC918B
:10310000119781E083AFF60194849A94F4E0F91565
:1031100008F468C1970126583D4FF90111821082C9
:103120008901AD0111C0FA01608171816A0F7B1FB5
:10313000AC0DBD1D8C91DB0115968C93F80180813F
:103140009181019691838083F801A081B181A4309F
:10315000B10548F3D9011D921C92970126583D4FA5
:10316000A501440F551F4E0D5F1D475B5F4F12C0F9
:10317000FA01608171816A0F7B1FAC0DBD1D149631
:103180008C91DB0111968C93F901808191810196DC
:1031900091838083F901A081B181A430B10540F30E
:1031A00011821082970126583D4FA501440F551FEB
:1031B000D701A40FB51FA75BBF4F11C06D917C91C4
:1031C0001197680F791F8C0D9D1DFC018085FB01F7
:1031D0008187F90180819181019691838083F90132
:1031E000808191818230910548F3D701A40FB51FEA
:1031F000A75BBF4FED91FC91119713A62D913C91C8
:103200001197F6018285F90182ABED91FC91CDC158
:10321000823009F0CFC1D60151968C918083F201A2
:10322000008111810E942E06D801D5966D937D9361
:103230008D939C93D89740E050E0F60183898332C8
:1032400011F441E050E0D501AA0FBB1FAE0DBF1D28
:10325000A75BBF4F2D913C911197B601640F751F6D
:10326000FB018389F90181A7970126583D4FF90198
:10327000118210820D911C911197F80181A5813066
:1032800089F0813020F0823009F089C063C0FB01F1
:103290008489F801838BED91FC91DB0155968C912B
:1032A000848B7DC0F901118210824901BD0114C0D7
:1032B000FB01008111810A0F1B1FAC0DBD1DA40F66
:1032C000B51F54968C91D8011B968C93F401808184
:1032D0009181019691838083F401A081B181A43012
:1032E000B10530F3D9011D921C92970126583D4F2C
:1032F000B501660F771F6E0D7F1D675B7F4F14C092
:10330000FB01008111810A0F1B1FAC0DBD1DA40F15
:10331000B51F58968C91D8011F968C93F901808126
:103320009181019691838083F901A081B181A430BC
:10333000B10530F334C0ED91FC911197E80FF91FFE
:10334000258BFB0180819181019691838083459734
:1033500010F00CC0B901FB0180819181F601E80FEA
:10336000F91FE40FF51F2489233229F7F501EE0F29
:10337000FF1FEE0DFF1DE75BFF4F0190F081E02D79
:103380002AE732E0E20EF31ED7018D919C9126E8E8
:103390003DEFE20EF31EE80FF91F83E2858B41300B
:1033A000510571F4F501EE0FFF1FEE0DFF1DE75BF8
:1033B000FF4F0190F081E02DD60152968C9182AFA3
:1033C000D501AA0FBB1FAE0DBF1DA75BBF4FED916F
:1033D000FC91119781E083AFF60192889A94F4E012
:1033E000F91518F4C701672D2BC5970126583D4FD5
:1033F000F901118210828901AD0111C0FA016081C9
:1034000071816A0F7B1FAC0DBD1D8C91DB01159680
:103410008C93F80180819181019691838083F801DA
:10342000A081B181A430B10548F3D9011D921C924D
:10343000970126583D4FA501440F551F4E0D5F1DA6
:10344000475B5F4F12C0FA01608171816A0F7B1F79
:10345000AC0DBD1D14968C91DB0111968C93F90176
:1034600080819181019691838083F901A081B1814E
:10347000A430B10540F311821082970126583D4FC8
:10348000A501440F551FB701640F751F675B7F4F80
:1034900012C0FB01008111810A0F1B1FAC0DBD1D65
:1034A00018968C91D80119968C93F901808191819D
:1034B000019691838083F901A081B181A230B10589
:1034C00040F3F701E40FF51FE75BFF4FA081B181E7
:1034D00082E09B968C9340815181D6011A968C9103
:1034E000DA019C968C930190F081E02DD6011B9619
:1034F0008C9185A7F90111821082970126583D4FC2
:10350000A501440F551F4E0D5F1D475B5F4F12C055
:10351000FA01608171816A0F7B1FAC0DBD1D1C9685
:103520008C91DB019E968C93F901808191810196AB
:1035300091838083F901A081B181A230B10540F36C
:1035400011821082970126583D4FA501440F551F47
:10355000D701A40FB51FA75BBF4F11C06D917C9120
:103560001197680F791F8C0D9D1DFC018685FB014D
:1035700080ABF90180819181019691838083F9016B
:10358000808191818230910548F3F701E40FF51FA6
:10359000E75BFF4F20813181D60150968C91D90194
:1035A000D2968C930190F081E02D82A9823011F4A3
:1035B00081E083A7072D10E0A92CBB2481E090E0D7
:1035C00068E670E00E94F800AC01F801EE0FFF1F02
:1035D000EE0FFF1FE00FF11FEA0DFB1D3B96EE0FF4
:1035E000FF1FEE0DFF1D518340834115510521F44E
:1035F000C7010E94090F26C422E432E0E20EF31E46
:10360000D7019C912EEB3DEFE20EF31E913009F0B5
:10361000A2C1A0E8B2E0EA0EFB1ED7018C9120E81F
:103620003DEFE20EF31E882309F0BCC04A595F4FFC
:10363000D60115968C91DA018C93D60116968C9151
:103640000190F081E02D833221F4E959FF4F9083FE
:1036500003C0E959FF4F1082F801EE0FFF1FEE0F74
:10366000FF1FE00FF11FEA0DFB1D3B96EE0FFF1F42
:10367000EE0DFF1D0190F081E02DE959FF4F6081B3
:10368000862E9924D701A658BD4F11961C921E92E2
:10369000F801EE0FFF1FEE0DFF1DE75BFF4F0190DE
:1036A000F081E02D81A5813071F0813018F08230F9
:1036B00039F403C082E090E01CC040E050E00BC051
:1036C00080E090E016C088E090E013C02F5F3F4F8D
:1036D00011963C932E932D913C911197F601E20F98
:1036E000F31FE80DF91D87814F5F5F4F833271F73C
:1036F000CA01695F680F262F30E0F701EA5BFD4FD2
:10370000808191818217930710F431832083F8011F
:10371000EE0FFF1FEE0FFF1FE00FF11FEA0DFB1D65
:103720003B96EE0FFF1FEE0DFF1D608171816C59FE
:103730007F4F46E452E0E40EF51ED7018D919C9137
:103740004AEB5DEFE40EF51E821B930BDB018D93BC
:103750009C93D701A658BD4F11961C921E924D0105
:10376000AF0110C06E0F7F1FEC0DFD1DE20FF31FA8
:103770008081FB018083D4018D919C9111970196EA
:103780008D939C93D401ED91FC91DA016D917C9124
:103790006C597F4FDB018D919C9164567040E81706
:1037A000F90700F3E0E8F2E0EE0EFF1ED7019C916E
:1037B000E0E8FDEFEE0EFF1E913009F0CCC0F801FD
:1037C000EE0FFF1FEE0FFF1FE00FF11FEA0DFB1DB5
:1037D0003B96EE0FFF1FEE0DFF1D208131812A5910
:1037E0003F4FD6011B968C91D9018C93D6011C9624
:1037F0008C910190F081E02D833221F4E959FF4F43
:10380000908303C0E959FF4F1082F801EE0FFF1FAC
:10381000EE0FFF1FE00FF11FEA0DFB1D3B96EE0FB1
:10382000FF1FEE0DFF1D0190F081E02DE959FF4FC4
:103830006081862E9924D701A658BD4F11961C92FF
:103840001E92F801EE0FFF1FEE0DFF1DE75BFF4F0D
:103850000190F081E02D81A5813071F0813018F068
:10386000823039F403C082E090E01CC040E050E0B8
:103870000BC080E090E016C088E090E013C02F5F9E
:103880003F4F11963C932E932D913C911197F60149
:10389000E20FF31FE80DF91D85854F5F5F4F8332FF
:1038A00071F7CA01635F680F262F30E0F701EA5B0A
:1038B000FD4F808191818217930710F4318320831B
:1038C000F801EE0FFF1FEE0FFF1FE00FF11FEA0DD3
:1038D000FB1D3B96EE0FFF1FEE0DFF1D60817181FA
:1038E0006C597F4F46E452E0E40EF51ED7018D91EE
:1038F0009C914AEB5DEFE40EF51E821B930BDB01FE
:103900008D939C93D701A658BD4F11961C921E9281
:103910004D01AF0110C06E0F7F1FEC0DFD1DE20FBA
:10392000F31F8081FB018083D4018D919C911197BD
:1039300001968D939C93D401ED91FC91DA016D91E8
:103940007C916C597F4FDB018D919C916456704046
:10395000E817F90700F3E2E4F2E0EE0EFF1ED701EC
:103960008C91EEEBFDEFEE0EFF1E8250843008F0DE
:10397000ABC121E832E0E20EF31ED7018C91EFE7F4
:10398000FDEFEE0EFF1E882309F0CEC0F801EE0F0A
:10399000FF1FEE0FFF1FE00FF11FEA0DFB1D3B960F
:1039A000EE0FFF1FEE0DFF1D208131812A593F4F81
:1039B000D6011C968C91D9018C93D6011D968C91C1
:1039C0000190F081E02D833229F4E959FF4F81E025
:1039D000808303C0E959FF4F1082F801EE0FFF1FEB
:1039E000EE0FFF1FE00FF11FEA0DFB1D3B96EE0FE0
:1039F000FF1FEE0DFF1D0190F081E02DE959FF4FF3
:103A00006081862E9924D701A658BD4F11961C922D
:103A10001E92F801EE0FFF1FEE0DFF1DE75BFF4F3B
:103A20000190F081E02D81A5813071F0813018F096
:103A3000823039F403C082E090E01CC040E050E0E6
:103A40000BC080E090E016C088E090E013C02F5FCC
:103A50003F4F11963C932E932D913C911197F60177
:103A6000E20FF31FE80DF91D86854F5F5F4F83322C
:103A700071F7CA01625F680F262F30E0F701EA5B39
:103A8000FD4F808191818217930710F43183208349
:103A9000F801EE0FFF1FEE0FFF1FE00FF11FEA0D01
:103AA000FB1D3B96EE0FFF1FEE0DFF1D6081718128
:103AB0006C597F4F46E452E0E40EF51ED7018D911C
:103AC0009C914AEB5DEFE40EF51E821B930BDB012C
:103AD0008D939C93D701A658BD4F11961C921E92B0
:103AE0005D01AF0110C06E0F7F1FEC0DFD1DE20FD9
:103AF000F31F8081FB018083D5018D919C911197EB
:103B000001968D939C93D501ED91FC91DA016D9115
:103B10007C916C597F4FDB018D919C916456704074
:103B2000E817F90700F3D0C0823009F0CDC0F801E2
:103B3000EE0FFF1FEE0FFF1FE00FF11FEA0DFB1D41
:103B40003B96EE0FFF1FEE0DFF1D208131812A599C
:103B50003F4FD60152968C91D9018C93D601539642
:103B60008C910190F081E02D833229F4E959FF4FC7
:103B700081E0808303C0E959FF4F1082F801EE0F06
:103B8000FF1FEE0FFF1FE00FF11FEA0DFB1D3B961D
:103B9000EE0FFF1FEE0DFF1D0190F081E02DE959A2
:103BA000FF4F6081862E9924D701A658BD4F1196EC
:103BB0001C921E92F801EE0FFF1FEE0DFF1DE75B3A
:103BC000FF4F0190F081E02D81A5813071F08130AF
:103BD00018F0823039F403C082E090E01CC040E06D
:103BE00050E00BC080E090E016C088E090E013C089
:103BF0002F5F3F4F11963C932E932D913C9111973F
:103C0000F601E20FF31FE80DF91D87894F5F5F4F43
:103C1000833271F7CA016C5E680F262F30E0F7011E
:103C2000EA5BFD4F808191818217930710F4318305
:103C30002083F801EE0FFF1FEE0FFF1FE00FF11FB3
:103C4000EA0DFB1D3B96EE0FFF1FEE0DFF1D608181
:103C500071816C597F4F46E452E0E40EF51ED701A6
:103C60008D919C914AEB5DEFE40EF51E821B930B48
:103C7000DB018D939C93D701A658BD4F11961C92E2
:103C80001E925D01AF0110C06E0F7F1FEC0DFD1D78
:103C9000E20FF31F8081FB018083D5018D919C9100
:103CA000119701968D939C93D501ED91FC91DA01CA
:103CB0006D917C916C597F4FDB018D919C91645685
:103CC0007040E817F90700F3F701E85BFF4F8081C8
:103CD0008F5F8083853009F41082000F111F0E0D55
:103CE0001F1D075B1F4FD801ED91FC9193AD82AD75
:103CF000981711F481E081AF99E4C92ED12CCE0C34
:103D0000DF1C66247724870106581D4F83E5282E83
:103D1000312C2E0C3F1CF701E355FD4FFA83E9834C
:103D2000970121553D4F3C832B83A701415A5F4F9B
:103D30005E834D83C7018E5B9D4F98878F83D7012C
:103D4000AF57BD4FBA87A987F701E752FE4FFC87EF
:103D5000EB87D8011D921C920E942E06D601ED9190
:103D6000FC91309709F48FC325A936A947A950AD16
:103D700012161306140615060CF085C3621B730B8E
:103D8000840B950B69557B41804090400CF037C304
:103D900081AD813009F000C3B62CE981FA816082DF
:103DA000AB81BC811C92ED81FE8180818F5F80831D
:103DB000D8011D921C920FC0F901BA96EE0FFF1F99
:103DC000EE0DFF1D80819181892B59F02F5F3F4FB0
:103DD000F80131832083D8012D913C9125303105A4
:103DE00058F3E22FAD81BE818C91853090F0AB8588
:103DF000BC858C91813029F0813038F0823049F4D3
:103E00001DC0C7010E94700E03C0C7010E94030EAF
:103E1000E82F4E2E552481E090E064EB70E00E9484
:103E2000F800AC019201265D3F4F220F331F2E0D8B
:103E30003F1DF90191838083009731F4C7016B2DF9
:103E40000E94A50D8FEF2EC3D1018C9181508C93D0
:103E500045555F4FD601ED91FC9185A896A8A7A87E
:103E6000B0ACDA018D929D92AD92BC9213974F52F5
:103E700050408081FA018083D901ED91FC91E95590
:103E8000FF4FD6018D919C91DC019A968C91808395
:103E9000F901A081B181F60180819181FC0183A5A6
:103EA00018968C93AF81B8858C91813009F060C0F1
:103EB000F901A081B181A955BF4F8C91A75AB0409B
:103EC000813009F048C0D8011D921C92A90116C08A
:103ED000FA01A081B181A80FB91FAF57BF4FF601FA
:103EE00020813181280F391FF90185818C93D801F8
:103EF0008D919C91119701968D939C93F8018081EF
:103F000091818430910520F311821082A201465DD7
:103F10005F4F440F551F4E0D5F1D16C0FA01A08163
:103F2000B181A80FB91FA358BF4FF601208131817D
:103F3000280F391FF90181818C93D8018D919C91B3
:103F4000119701968D939C93F80180819181843023
:103F5000910520F36EC0882309F06BC0AB57BF4FAB
:103F6000F60180819181FC0181858C93D90156C035
:103F7000F80111821082A90116C0FA01A081B18155
:103F8000A80FB91FAF57BF4FF60120813181280F0D
:103F9000391FF90185818C93D8018D919C911197DE
:103FA00001968D939C93F8018081918184309105D5
:103FB00020F3118210829201265D3F4FB901660FF6
:103FC000771F6E0D7F1D13C0DB01ED91FC91E80F93
:103FD000F91FE358FF4F480F591FDA0111968C91D2
:103FE0008083F80180819181019691838083D8013B
:103FF0008D919C91F601408151818430910520F38F
:10400000D901AA0FBB1FAE0DBF1D2D913C91119779
:104010002B573F4FFA018185F9018083ED91FC9187
:10402000EA57FF4FD6018D919C91DC011A968C9135
:104030008083F601808191813AE2A32EB12CA40CF9
:10404000B51CAA0CBB1CAE0CBF1CD501ED91FC919C
:10405000EA55FF4FDC01DA966C91DA97D3968D9191
:104060009C91D49770E00E94BC356083D501ED919E
:10407000FC91E855FF4FD6018D919C91DC019996FA
:104080008C918083F501A081B181A855BF4F8C919F
:10409000A85AB0408130D9F0813020F0823009F048
:1040A0008BC05DC0A157BF4FF60180819181FC019B
:1040B00083898C93D501ED91FC91E057FF4FD60198
:1040C0008D919C91DC0154968C91808375C0F80190
:1040D00011821082A50116C0FA01A081B181A80F3A
:1040E000B91FA557BF4FF60120813181280F391F15
:1040F000F90183858C93D8018D919C91119701963C
:104100008D939C93F801808191818430910520F3F7
:1041100011821082A201465D5F4F440F551F4E0D64
:104120005F1D16C0FA01A081B181A80FB91FA95760
:10413000BF4FF60120813181280F391FF901878592
:104140008C93D8018D919C91119701968D939C939E
:10415000F801808191818430910520F32DC0D80130
:104160001D921C92A501F80180819181FA01A08124
:10417000B181A80FB91FAF56BF4FF6012081318121
:10418000280F391FF90185898C93D8018D919C9155
:10419000119701968D939C93D601ED91FC91E80FB8
:1041A000F91F25892332F9F6D501ED91FC91E80F2D
:1041B000F91FEF56FF4F2083D601ED91FC9182ADA0
:1041C000682F70E061507040F301EE0FFF1FEE0F9B
:1041D000FF1FE60DF71DE60FF71F3B96EE0FFF1FC3
:1041E000EE0DFF1DF88BEF8788249924AA24BB24A9
:1041F000A201465D5F4F440F551F4E0D5F1D32C03B
:10420000D8011D921C9216C0FA0120813181280F1D
:10421000391F2A0D3B1DA80FB91F8C91D9011C967F
:104220008C930894811C911CF801808191810196E6
:1042300091838083D8018D919C91EF85F889A0812D
:10424000B181AC59BF4F2D913C911197A456B0400C
:1042500082179307C8F2A20EB31E615070403297C6
:10426000F88BEF87FFEF6F3F7F0751F69201265DD6
:104270003F4F220F331F2E0D3F1DF901A081B18149
:10428000A059BF4F11969C928E92A057B040E985DD
:10429000FA858081823009F044C0AC58BF4FF601E6
:1042A00080819181FC0184A58C93D901ED91FC91D1
:1042B000EB58FF4FD6018D919C91DC019D968C911E
:1042C0008083D901ED91FC91EA58FF4FD6018D9181
:1042D0009C91DC019E968C918083D901ED91FC919B
:1042E000E958FF4FD6018D919C91DC019F968C91EE
:1042F0008083D901ED91FC91E858FF4FD6018D9153
:104300009C91DC01D0968C918083D901ED91FC9138
:10431000E758FF4FD6018D919C91DC01D1968C918D
:104320008083F801118210825301AA0CBB1CAA0CD5
:10433000BB1CA60CB71C1CC0EA0DFB1D3B96EE0F68
:10434000FF1FEE0DFF1D808191810E94BE01D801EB
:104350008D919C911197F501E80FF91F3B96EE0F97
:10436000FF1FEE0DFF1D1182108201968D939C930D
:10437000D801ED91FC91E530F105F0F2D601ED9117
:10438000FC9115AA16AA17AA10AECF010E94BE0171
:10439000F6011182108277C092AD83AD981709F0B3
:1043A00072C0D8011D921C925301AA0CBB1CAA0C0E
:1043B000BB1CA60CB71C1CC0EA0DFB1D3B96EE0FE8
:1043C000FF1FEE0DFF1D808191810E94BE01F8014B
:1043D00080819181F501E80FF91F3B96EE0FFF1FD9
:1043E000EE0DFF1D118210820196D8018D939C93D2
:1043F000D801ED91FC91E530F105F0F22DC0F80106
:10440000118210825301AA0CBB1CAA0CBB1CA60C67
:10441000B71C1CC0EA0DFB1D3B96EE0FFF1FEE0DF7
:10442000FF1D808191810E94BE01D8018D919C91D8
:104430001197F501E80FF91F3B96EE0FFF1FEE0DE8
:10444000FF1D1182108201968D939C93D801ED91EE
:10445000FC91E530F105F0F2D601ED91FC9115AA41
:1044600016AA17AA10AECF010E94BE01F601118252
:104470001082D1018C9181508C93E981FA81608204
:10448000AB81BC811C920894611C711CE2E0F0E0DD
:10449000CE0EDF1EF5E06F16710409F05ACC80E0F5
:1044A00001C081E060960FB6F894DEBF0FBECDBFAD
:1044B000CF91DF911F910F91FF90EF90DF90CF9000
:1044C000BF90AF909F908F907F906F905F904F9034
:1044D0003F902F900895AF92BF92CF92DF92EF92CC
:1044E000FF920F931F93CF93DF93EC016B015A015F
:1044F000890188E790E061E070E00E94F8007C01AB
:10450000009711F41FEF81C0B8016D5F7F4FFE016E
:10451000E658FD4F7183608340E050E0DF010BC03F
:10452000F601E20FF31F8081480F511D2F5F3F4FAF
:1045300011963C932E932D913C9111972A153B0592
:1045400078F34F3F510519F04F3F09F06AC0DE0183
:10455000AA5BBD4F11961C921E92FE01E658FD4FBC
:104560000C5F1F4F11830083045010409F0108947B
:10457000A108B108AD0116C0FD013497E01BF10B95
:10458000EE0DFF1DAC0DBD1D8C918083FA01808165
:104590009181019691838083F901808191810196B7
:1045A00091838083F901A081B181AA15BB0520F315
:1045B0006C0D7D1DFB018081813879F0823818F403
:1045C0008038D9F405C0803971F08139B1F40FC059
:1045D000C058DD4F81E0888303C0C058DD4F18828A
:1045E000C058D2400AC0CF57DD4F188204C0CF5701
:1045F000DD4F82E08883C158D240CE01B7010E94CE
:104600005710182FC7010E94BE01812FDF91CF9153
:104610001F910F91FF90EF90DF90CF90BF90AF90E0
:104620000895C7010E94BE0111E0EFCF2F923F9283
:104630004F925F926F927F928F929F92AF92BF92B2
:10464000CF92DF92EF92FF920F931F93DF93CF935E
:10465000CDB7DEB762970FB6F894DEBF0FBECDBF01
:104660006C014B010E942E06F82E2CED31E0C20E9B
:10467000D31E82E0D6018C93E4E2FEEFCE0EDF1E65
:10468000F601E255FD4F8081882321F400E010E01F
:10469000332408C08EE7D4018C93108201E010E02F
:1046A000332433944F2D592FCB01DA012C013D01D6
:1046B000EBE0F0E0FA8BE98BEE2422244EEAA42E04
:1046C00042E0B42EAC0CBD1C96012B5B3D4F388BE9
:1046D0002F875FC1AF85B889FC90FF2009F0A9C082
:1046E0008AE49BE00E949909882309F491C08AE436
:1046F0009BE00E949409F401E00FF11F80830F5F9B
:104700001F4F0E942E06AC01CB01DA012C013D01A6
:1047100001501040F401E00FF11F0F5F1F4F808127
:104720008E3761F48CE291E0801B910B8E369105FF
:1047300020F421E0D5012C9301C033940130110500
:1047400041F400E010E080818E3751F401E010E088
:1047500007C031E00C32130718F0FF24F39401C0B6
:10476000FF2486E0289E900111242C5F3F4FC90151
:104770008E0D911D0817190799F491E0E91699F02B
:10478000F401E00FF11F319780818A58823080F068
:10479000A989BA891396BA8BA98BEE24E39403C036
:1047A000B1E0EB1629F4E989FA893196FA8BE98BA5
:1047B000F401E00FF11F3197E081ED3749F4EE206D
:1047C00001F529893A892F5F3F4F3A8B298B19C010
:1047D000EA3851F402171307A1F489899A890696D9
:1047E0009A8B898B23940DC0EE3759F491E0E9162A
:1047F00041F4A989BA891197BA8BA98B39EFE32EB5
:10480000EA0EE989FA890E171F0711F4FF24F394C1
:104810000E942E060E942E066419750986099709C2
:10482000615D77408040904008F4B1C08AE49BE02D
:10483000ABC021E0F21609F0ACC08CE49BE00E9412
:104840009909882311F4FF2490C08CE49BE00E9416
:104850009409F401E00FF11F80830F5F1F4F0E9446
:104860002E06AC01CB01DA012C013D0101501040B4
:10487000F401E00FF11F0F5F1F4F80818E3759F455
:104880008CE291E0801B910B8E36910518F4D501D6
:10489000FC9201C033940130110541F400E010E0B6
:1048A00080818E3751F401E010E007C0B1E00C3296
:1048B0001B0718F0FF24F39401C0FF24E6E02E9EAE
:1048C000900111242C5F3F4FC9018E0D911D0817D7
:1048D000190799F4F1E0EF1699F0F401E00FF11FD8
:1048E000319780818A58823080F089899A8903962D
:1048F0009A8B898BEE24E39403C091E0E91629F4A6
:10490000A989BA891196BA8BA98BF401E00FF11F1E
:104910003197E081ED3741F4EE2001F5E989FA891C
:104920003196FA8BE98B1AC0EA3859F4021713074B
:10493000A9F429893A892A5F3F4F3A8B298B23941E
:104940000DC0EE3759F431E0E31641F489899A89B4
:1049500001979A8B898B29EFE22EE80EA989BA89F3
:104960000A171B0711F4FF24F3940E942E060E94DD
:104970002E066419750986099709615D77408040A4
:10498000904028F08CE49BE00E948F0907C0FF2034
:1049900029F4F5018081882309F49CCED4018C91FF
:1049A0008E3709F0339491E0E92EF12CAA24BB2430
:1049B0008AE7482E82E0582E4C0C5D1CF601E65525
:1049C000FD4FFA83E983960125553D4F3C832B83A8
:1049D000C60184559D4F9E838D83D601A755BD4F3B
:1049E000B887AF83F601E855FD4FFA87E98796014E
:1049F00024523E4F3C872B8766246394C601855220
:104A00009E4F9E878D879BC00894E11CF11C80817E
:104A10008E3721F03196E016F106B0F3D701AA19CE
:104A2000BB09BA8BA98BF201118210827724A401F1
:104A30004A0D5B1D0CC0FA01E20FF31F80818D3718
:104A400009F473942F5F3F4FD2012D933C93F201F1
:104A50002081318189899A892817390760F3772065
:104A600049F09701281B390BC601B40149895A89BD
:104A70000E942B0A9701A989BA892A1B3B0BF401D2
:104A8000E20FF31F83818B38C1F18C3820F48A3810
:104A900009F050C006C0803991F0813909F04AC050
:104AA0001BC0E989FA89EA0DFB1DE719F109FA8BA8
:104AB000E98BC601B401AF010E94860A3BC0898917
:104AC0009A898A0D9B1D871991099A8B898BC6013A
:104AD000B40149895A890BC0E989FA89EA0DFB1D9D
:104AE000E719F109FA8BE98BC601B401AF010E9405
:104AF0006B22AD85BE858C931DC08581A981BA814D
:104B00008C938681AB81BC818C938781AD81BE8182
:104B10008C938185AF81B8858C938085E985FA85F2
:104B20008083882321F4AB85BC851C9203C0EB8570
:104B3000FC8560823A9457010894E11CF11C3320F3
:104B400021F0F401EE0DFF1D62CF2CED31E0C20E1D
:104B5000D31ED6018C9162960FB6F894DEBF0FBEBD
:104B6000CDBFCF91DF911F910F91FF90EF90DF901C
:104B7000CF90BF90AF909F908F907F906F905F90FD
:104B80004F903F902F9008952F923F924F925F92B7
:104B90006F927F928F929F92AF92BF92CF92DF924D
:104BA000EF92FF920F931F93DF93CF93CDB7DEB7B2
:104BB0002A970FB6F894DEBF0FBECDBF5C014B0144
:104BC0000E942E06F82E2CED31E0A20EB31E82E0DC
:104BD000D5018C93E4E2FEEFAE0EBF1EF501E25567
:104BE000FD4F8081882321F400E010E0332408C0C9
:104BF0008EE7D4018C93108201E010E033243394CB
:104C00004F2D592FCB01DA012C013D01E7E0F0E0F7
:104C1000FA87E987EE242224FEEACF2EF2E0DF2E87
:104C2000CA0CDB1C95012B5B3D4F38872F835FC17E
:104C3000AF81B885FC90FF2009F0A9C08AE49BE011
:104C40000E949909882309F491C08AE49BE00E949C
:104C50009409F401E00FF11F80830F5F1F4F0E9442
:104C60002E06AC01CB01DA012C013D0101501040B0
:104C7000F401E00FF11F0F5F1F4F80818E3761F449
:104C80008CE291E0801B910B8E36910520F421E09F
:104C9000D6012C9301C033940130110541F400E09A
:104CA00010E080818E3751F401E010E007C031E060
:104CB0000C32130718F0FF24F39401C0FF2486E0A0
:104CC000289E900111242C5F3F4FC9018E0D911D2C
:104CD0000817190799F491E0E91699F0F401E00F2B
:104CE000F11F319780818958823080F0A985BA857B
:104CF0001396BA87A987EE24E39403C0B1E0EB16BC
:104D000029F4E985FA853196FA87E987F401E00FFD
:104D1000F11F3197E081ED3749F4EE2001F5298547
:104D20003A852F5F3F4F3A87298719C0EA3851F4F7
:104D300002171307A1F489859A8506969A878987B1
:104D400023940DC0EE3759F491E0E91641F4A9859A
:104D5000BA851197BA87A987E9EFEE2EEA0EE985A1
:104D6000FA850E171F0711F4FF24F3940E942E06F4
:104D70000E942E066419750986099709615D7740BE
:104D80008040904008F4B1C08AE49BE0ABC021E0D1
:104D9000F21609F0ACC08CE49BE00E9499098823CC
:104DA00011F4FF2490C08CE49BE00E949409F4016C
:104DB000E00FF11F80830F5F1F4F0E942E06AC0192
:104DC000CB01DA012C013D0101501040F401E00F4C
:104DD000F11F0F5F1F4F80818E3759F48CE291E0F5
:104DE000801B910B8E36910518F4D601FC9201C000
:104DF00033940130110541F400E010E080818E37DA
:104E000051F401E010E007C0B1E00C321B0718F0CC
:104E1000FF24F39401C0FF24E6E02E9E90011124AC
:104E20002C5F3F4FC9018E0D911D0817190799F48A
:104E3000F1E0EF1699F0F401E00FF11F3197808156
:104E40008958823080F089859A8503969A87898768
:104E5000EE24E39403C091E0E91629F4A985BA850C
:104E60001196BA87A987F401E00FF11F3197E0810D
:104E7000ED3741F4EE2001F5E985FA853196FA87A0
:104E8000E9871AC0EA3859F402171307A9F42985EB
:104E90003A852A5F3F4F3A87298723940DC0EE3722
:104EA00059F431E0E31641F489859A8501979A8790
:104EB000898779EFE72EE80EA985BA850A171B07BF
:104EC00011F4FF24F3940E942E060E942E0664190A
:104ED000750986099709615D77408040904028F008
:104EE0008CE49BE00E948F0907C0FF2029F4F601A3
:104EF0008081882309F49CCED4018C918E3709F0EF
:104F0000339461E0E62EF12CCC24DD245AE7452EC3
:104F100052E0552E4A0C5B1CF501E552FE4FFA8318
:104F2000E983950128553D4F3C832B83C50184526D
:104F30009E4F9E838D836624639488C00894E11CF1
:104F4000F11C80818E3721F03196E016F106B0F326
:104F5000D701AC19BD09BA87A987F2011182108265
:104F60007724A4014C0D5D1D0CC0FA01E20FF31F64
:104F700080818D3709F473942F5F3F4FD2012D93B9
:104F80003C93F2012081318189859A852817390760
:104F900060F3772049F09701281B390BC501B40154
:104FA00049855A850E942B0A9701A985BA852A1B33
:104FB0003B0BF401E20FF31F8381813821F182382A
:104FC00018F48038F1F512C0893871F18A38C9F5C2
:104FD000E985FA85EC0DFD1DE719F109FA87E987E6
:104FE000C501B401AF010E94860A2BC089859A854C
:104FF0008C0D9D1D871991099A878987C501B40178
:1050000049855A850BC0E985FA85EC0DFD1DE71928
:10501000F109FA87E987C501B401AF010E946B224B
:10502000A981BA818C930DC08581EB81FC8180833D
:10503000882321F4AD81BE811C9203C0ED81FE81E5
:1050400060823A9467010894E11CF11C332021F03E
:10505000F401EE0DFF1D75CF2CED31E0A20EB31E55
:10506000D5018C912A960FB6F894DEBF0FBECDBF46
:10507000CF91DF911F910F91FF90EF90DF90CF9034
:10508000BF90AF909F908F907F906F905F904F9068
:105090003F902F9008952F923F924F925F926F9280
:1050A0007F928F929F92AF92BF92CF92DF92EF92B8
:1050B000FF920F931F93DF93CF93CDB7DEB7609727
:1050C0000FB6F894DEBF0FBECDBF6C0178876F833B
:1050D0008CE291E061E070E00E94F8005C010097D2
:1050E000A1F425E432E0C20ED31EF60100810023B4
:1050F00019F48AE49BE004C0013021F48CE49BE0C5
:105100000E948F09FF24FA9400C20E942E060E947A
:105110002E06F601E255FD4F8081882321F41A8284
:105120002224332409C010828EE7F5018083F1E048
:10513000FA83B1E02B2E312CEF81F88580818F3FEF
:1051400029F4C601B5010E94C42506C08E3F79F43A
:10515000C601B5010E941623860104521E4FF801B4
:105160008083C5010E94BE01F801F080CEC18E3E51
:1051700041F4A5E06A2E712C812C912CFDE65F2E66
:1051800007C0E2E36E2E712C812C912C7EE1572E0C
:10519000EF81F8858581853489F48681843409F02E
:1051A00045C022E432E0C20ED31EF60180812EEB10
:1051B0003DEFC20ED31E8130C9F5C7C1843461F4FE
:1051C000EF81F88586818E3489F568EE662E63E07E
:1051D000762E812C912C2AC08E3441F5EF81F885F2
:1051E0008681843419F522E432E0C20ED31EF60122
:1051F00080812EEB3DEFC20ED31E833039F450E494
:10520000652E5CE9752E812C912C10C08450823063
:1052100038F440EB642E46E3742E812C912C06C0AA
:1052200030E2632E3EE4732E812C912C0E942E06D8
:105230006B837C838D839E830E942E06AC01CB0101
:10524000DA017C018D01A60142555D4F588B4F87D5
:10525000C6018B5B9D4F9C878B87E52DF0E0FE8719
:10526000ED87442443945CC08AE49BE00E94990942
:10527000882309F451C08AE49BE00E949409F50157
:10528000E20DF31D80830894211C311CF501E20D11
:10529000F31D319780818E37C1F58CE291E0821940
:1052A00093092D853E858217930760F5EF85F88970
:1052B00040822BC021E0521679F58CE49BE00E94DD
:1052C0009909882349F18CE49BE00E949409F50137
:1052D000E20DF31D80830894211C311CF501E20DC1
:1052E000F31D319780818E3781F48CE291E0821931
:1052F00093094D855E858417950720F4EF85F8891D
:10530000508203C0FA81FF5FFA830E942E06AC012F
:10531000CB01DA017C018D010E942E060E942E062F
:105320000E942E066E197F09800B910B661577057A
:105330008805990508F003C10E942E062B813C8147
:105340004D815E81621B730B840B950B60547C490D
:105350008040904008F0F3C04CE2241641E034064F
:1053600008F0EDC0EF85F8898081882309F0E7C057
:10537000EB85FC855080552009F09CCF75CFFA81D4
:10538000FF5FFA8300E010E022E0F22E198291E044
:10539000892E912C8AE7482E82E0582E4C0C5D1CF9
:1053A000960126523E4F3A872987BBED6B2EB1E01E
:1053B0007B2E6C0C7D1C9CC00894811C911C8081F0
:1053C0008E3721F0319682149304B0F3A401401B70
:1053D000510B588B4F87F20111821082EE24A501E8
:1053E000400F511F0CC0FA01E20FF31F80818D376F
:1053F00009F4E3942F5F3F4FF20131832083F201E0
:10540000208131818F8598892817390760F3EE2034
:1054100049F09401281B390BC601B5014F85588905
:105420000E942B0AD401EF85F889AE1BBF0BF50152
:10543000EA0FFB1F8381883881F0893830F4803887
:1054400079F1813809F048C036C08039A1F181393D
:1054500091F18A3809F040C013C02F853889200F98
:10546000311F2E193109388B2F87C601B5014F81A5
:1054700058858D010E94F60CF82EE985FA852BC01F
:105480002F853889200F311F2E193109388B2F872E
:10549000C601B501A9019D010E94860AF82E1CC013
:1054A0004F855889400F511F4E195109588B4F870E
:1054B000C601B5010BC02F853889200F311F2E1969
:1054C0003109388B2F87C601B501A9019D010E94C2
:1054D0006B22F82EF301F082FF2019F4F981FF5FAF
:1054E000F9832A8121502A8384010894811C911C0C
:1054F0003A81332321F0F501E80DF91D60CFC50194
:105500000E94BE0149814111FF248F2D60960FB684
:10551000F894DEBF0FBECDBFCF91DF911F910F91E9
:10552000FF90EF90DF90CF90BF90AF909F908F90C3
:105530007F906F905F904F903F902F900895F5016E
:1055400080818E3709F01BCF1DCFA8EB6A2EABE010
:105550007A2E812C912C6ACE6F927F928F929F929D
:10556000AF92BF92DF92EF92FF920F931F93CF9370
:10557000DF938C013B018EE190E061E070E00E94DE
:10558000F8007C01009709F4DBC08EE7F701808307
:10559000118288E0838382E584838EE4858389E4B5
:1055A000868384E190E061E070E00E94F8005C0195
:1055B000009709F4C5C0980126583D4FF9011182A2
:1055C000108206521E4F82E0F80180830A5D11406E
:1055D000E90109C0AE0DBF1D1796EC938881998132
:1055E000019699838883A881B981F301EA0FFB1F93
:1055F000E081EE2379F762E0862E912C8E0C9F1CC1
:105600008A2F8C5FF701828383E090E0F901918318
:10561000808340E0D801A658BD4F0AC0F701E20FD1
:10562000F31F8081480F2F5F3F4F11963C932E93BD
:105630002D913C911197F4018081E82FF0E0CF018A
:1056400003962817390750F3EE0DFF1D409543834D
:10565000DD24E801CB5BDD4F1BC08881882349F442
:10566000EE0DFF1D408150E060E070E08AE49BE0B9
:105670000AC0813061F4EE0DFF1D408150E060E012
:1056800070E08CE49BE020E030E00E946309D3945A
:10569000F401808190E00396ED2DF0E08E179F07D6
:1056A000E4F6E801C658DD4F19821882DE010AC00F
:1056B000F801E80FF91FE857FD4F10820196119687
:1056C0009C938E938D919C9111978E31910580F3CF
:1056D00003571D4F8EE4F80181938F0189E4808385
:1056E0000E581240B80168577D4FC8010E944B28E0
:1056F000D82E8823E9F419821882E801C658DD4FB4
:105700000EC0F801E20FF31FE55DFE4FD301A20FBB
:10571000B31F8C9180832F5F3F4F3983288328816B
:105720003981F401808190E004972817390748F304
:10573000C7010E94BE01C5010E94BE018D2D01C09E
:1057400082E0DF91CF911F910F91FF90EF90DF905A
:10575000BF90AF909F908F907F906F900895EF9241
:10576000FF920F931F93CF93DF93EC01FC01E65858
:10577000FD4F1182108290E0DF0106C09F5F2F5F16
:105780003F4F11963C932E932D913C911197FB0125
:10579000E20FF31F8081882389F7092F069510E017
:1057A00075E4E72E72E0F72EEC0EFD1E26C0F70121
:1057B0008081882361F4FE01E10FF11DE857FD4F60
:1057C000408150E060E070E08AE49BE011C08130ED
:1057D00099F48AE09AE00E94EF08FE01E10FF11DC2
:1057E000E857FD4F408150E060E070E08CE49BE0C2
:1057F00020E030E00E9463091F5F1017C0F2CE0165
:10580000C857DD4FBE010E944B28DF91CF911F91F9
:105810000F91FF90EF900895AF92BF92CF92DF92D9
:10582000EF92FF920F931F93CF93DF938C015A0156
:10583000DC01A658BD4F11961C921E92ED0109C0C5
:10584000F801E80FF91FE857FD4F10820196998380
:105850008883888199818E31910590F31D921C92E5
:1058600090E0D801A658BD4F06C09F5F2F5F3F4F05
:1058700011963C932E932D913C911197FB01E20FD1
:10588000F31F8081882389F7D92ED6947B01C02EFF
:10589000C801EC0110C08AE09AE0F7016081418103
:1058A0000E945E08C857DD4F888322E030E0E20E98
:1058B000F31EC758D240FE01EC19ED1560F3F8E174
:1058C000DF16D9F4F801E658FD4F11821082EF017E
:1058D0000EC0F801E20FF31FE157FD4FD501A20FF3
:1058E000B31F8C9180832F5F3F4F3983288328819A
:1058F00039812031310568F362C020E1D216D9F434
:10590000F801E658FD4F11821082EF010EC0F80138
:10591000E20FF31FE157FD4FD501A20FB31F8C918A
:1059200080832F5F3F4F3983288328813981283036
:10593000310568F344C03BE0D316D9F4F801E658CA
:10594000FD4F11821082EF010EC0F801E20FF31F2C
:10595000E157FD4FD501A20FB31F8C9180832F5FBC
:105960003F4F39832883288139812330310568F3FB
:1059700026C08AE0D816D9F4F801E658FD4F118206
:105980001082EF010EC0F801E20FF31FE157FD4F47
:10599000D501A20FB31F8C9180832F5F3F4F3983B6
:1059A0002883288139812230310568F308C00D0D24
:1059B000111D0A571D4FF5018081F8018083DF9189
:1059C000CF911F910F91FF90EF90DF90CF90BF90FC
:1059D000AF9008950F931F93CF93DF93EC018B014A
:1059E000C652DE4F82E08883CA5DD140CE0161E5B8
:1059F00073E0A8010E940C2CCE0161E573E00E94C7
:105A0000E709CE0161E573E00E94AF2B982F882350
:105A1000E1F4FE01E658FD4F11821082AF010FC084
:105A2000FE01E20FF31FE75AFE4FD801A20FB31F8A
:105A30008C9180832F5F3F4FFA0131832083FA01DD
:105A4000208131812031310558F3892FDF91CF91A9
:105A50001F910F9108950F931F93CF93DF93EC0144
:105A60008B01CE5BDD4F8881C254D240813041F042
:105A7000833031F0843021F0853011F092E017C08E
:105A8000C652DE4F82E08883CA5DD140CE0162E01B
:105A900074E0A8010E940C2CCE0162E074E00E9428
:105AA000E709CE0162E074E00E94AF2B982FCE5B35
:105AB000DD4F8881C254D2408230B1F4C652DE4FED
:105AC0008883CA5DD140CE0167E174E0A8010E94DD
:105AD0000C2CCE0167E174E00E94E709CE0167E17A
:105AE00074E00E94AF2B982F992309F048C0CE5B39
:105AF000DD4F8881C254D240813031F0833021F0B3
:105B0000843011F08530D1F4FE01E658FD4F11824A
:105B10001082AF010DC0FE01E20FF31FD801A20FEA
:105B2000B31F8C9185872F5F3F4FFA01318320830C
:105B3000FA01208131812230310568F3CE5BDD4FDF
:105B40008881C254D2408230D1F4FE01E658FD4F24
:105B500011821082AF010DC0FE01E20FF31FD801C8
:105B6000A20FB31F8C9185872F5F3F4FFA013183BE
:105B70002083FA01208131812830310568F3892F93
:105B8000DF91CF911F910F910895EF92FF920F93A4
:105B90001F93CF93DF93AC01DC01A658BD4F119644
:105BA0001C921E92ED0109C0FA01E80FF91FE85797
:105BB000FD4F1082019699838883888199818E3167
:105BC000910590F31D921C9290E0DA01A658BD4F0A
:105BD00006C09F5F2F5F3F4F11963C932E932D91F0
:105BE0003C911197FB01E20FF31F8081882389F715
:105BF000E92EE6948B01F42ECA01EC010EC08AE076
:105C00009AE0F801608141810E945E08C857DD4F2B
:105C100088830E5F1F4FC758D2409E012F192E1543
:105C200070F3DF91CF911F910F91FF90EF90089546
:105C3000EF92FF920F931F938C0106521E4F82E04A
:105C4000F80180830A5D1140BBEFEB2EB4E0FB2E20
:105C5000C801B7010E94C52DC801B7010E94AF2B32
:105C60001F910F91FF90EF900895EF92FF920F9385
:105C70001F938C0106521E4F82E0F8018083075B60
:105C80001040F8011082035211408EE2E82E85E0A8
:105C9000F82EC801B7010E94C52DC801B7010E94A6
:105CA000AF2B1F910F91FF90EF900895CF93DF934B
:105CB000EC01C652DE4F82E08883CA5DD140CE013E
:105CC00064E975E00E94C52DCE0164E975E00E948B
:105CD000AF2B982F8823D9F4FE01E658FD4F11828F
:105CE0001082DF010EC0FE01E20FF31FE85BFD4FE3
:105CF0008081E854F24085832F5F3F4F11963C939B
:105D00002E932D913C9111972430310560F3892F0A
:105D1000DF91CF910895CF93DF93EC01C652DE4F10
:105D200082E08883CA5DD140CE0165EA75E00E94B9
:105D3000C52DCE0165EA75E00E94AF2B982F882310
:105D4000D9F4FE01E658FD4F11821082DF010EC02A
:105D5000FE01E20FF31FE85BFD4F8081E854F24043
:105D600081832F5F3F4F11963C932E932D913C9151
:105D700011972430310560F3892FDF91CF91089579
:105D8000CF93DF93EC010E948B2E882319F4CE0170
:105D90000E94562EDF91CF910895BF92CF92DF924D
:105DA000EF92FF920F931F93CF93DF938C01B42E4A
:105DB000DC01A658BD4F11961C921E92ED0109C040
:105DC000F801E80FF91FE857FD4F108201969983FB
:105DD0008883888199818E31910590F31D921C9260
:105DE00090E0D801A658BD4F06C09F5F2F5F3F4F80
:105DF00011963C932E932D913C911197FB01E20F4C
:105E0000F31F8081882389F7D92ED6947B01C02E79
:105E1000C801EC0110C08AE09AE0F701608141817D
:105E20000E945E08C857DD4F888322E030E0E20E12
:105E3000F31EC758D240FE01EC19ED1560F30D0DAD
:105E4000111D0A571D4FF801B082DF91CF911F91AC
:105E50000F91FF90EF90DF90CF90BF9008951F9328
:105E6000CF93DF93EC01162FC652DE4F82E088837A
:105E7000CA5DD140CE016FEE75E0412F0E94CD2E5C
:105E8000CE016FEE75E00E94E709CE016FEE75E07E
:105E90000E94AF2B882319F4C759DE4F1883DF9176
:105EA000CF911F9108951F93CF93DF93EC01162F8D
:105EB000CE5BDD4F8881C254D240813021F08330E7
:105EC00011F08430C9F4C652DE4F82E08883CA5D87
:105ED000D140CE016BE376E0412F0E94CD2ECE0162
:105EE0006BE376E00E94E709CE016BE376E00E9467
:105EF000AF2B882331F008C0C652DE4F8FEF888366
:105F000003C0C65DDE4F1883DF91CF911F910895C6
:105F1000CF93DF93EC01CB5BDD4F8881C554D2403A
:105F2000882351F48AE49BE060E040E056E90E9457
:105F3000D8098AE49BE00BC0813061F48CE49BE0DB
:105F400061E040E056E90E94D8098CE49BE061E002
:105F50000E949E09CE5BDD4F8881C254D2408230C0
:105F600011F0853029F464EF71E080E090E004C026
:105F700062E370E080E090E00E94460681E0888362
:105F800080E0DF91CF9108951092040E1092050EDB
:105F90001092080E10920A0E08950F93CF93DF937C
:105FA000EC01CE5BDD4F69934993299309931982E4
:105FB0001882E496199219921992199219921992CB
:105FC0001992199219921992188219821A821B82B7
:105FD000CC53D24018822B9618822C961882CE5120
:105FE000DF4F18822297199282E88883A996188237
:105FF000229680E28883CB56D1406430D9F0CC5DC4
:10600000DE4F199297E0999380ED89931992199236
:1060100088EC8883C75BDF4F1882289784E08883E9
:10602000C55ADE4F999383E08993899381E08883F1
:10603000C85CD240C355DD4F19921882C55DD0406F
:1060400092E09883CA52DF4F81E08883C55DD040DB
:10605000999399939883CC5DD140CE010E94DD0E37
:10606000CE010E948C0DDF91CF910F9108950F9377
:1060700000E00E94CD2F0F910895882389F480912C
:106080001B0E90911C0E80509E4F20911D0E309142
:106090001E0E821B930B60E072E00E94D0350895C3
:1060A00080911F0E9091200E80589F4F2091210EBD
:1060B0003091220E821B930B60E870E00E94D03575
:1060C00008958823D1F440911D0E50911E0E8091A9
:1060D0001B0E90911C0E8417950751F1FA01E252A4
:1060E000FF4E2081CA01019660E072E00E94D03527
:1060F00090931E0E80931D0E19C04091210E509159
:10610000220E80911F0E9091200E8417950781F02A
:10611000FA01E25AFF4E2081CA01019660E870E060
:106120000E94D0359093220E8093210E30E002C061
:106130002FEF3FEFC9010895882349F410921E0EF6
:1061400010921D0E10921C0E10921B0E08951092AC
:10615000220E1092210E1092200E10921F0E089502
:106160001F920F920FB60F920BB60F9211242F931E
:106170003F934F935F936F937F938F939F93AF93CF
:10618000BF93EF93FF934091C600E0911B0EF091F7
:106190001C0ECF01019660E072E00E94D0359C0198
:1061A00080911D0E90911E0E2817390739F0E2528A
:1061B000FF4E408330931C0E20931B0EFF91EF91F6
:1061C000BF91AF919F918F917F916F915F914F910F
:1061D0003F912F910F900BBE0F900FBE0F901F900D
:1061E00018951F920F920FB60F920BB60F921124B3
:1061F0002F933F934F935F936F937F938F939F93CF
:10620000AF93BF93EF93FF934091CE00E0911F0EA9
:10621000F091200ECF01019660E870E00E94D03529
:106220009C018091210E9091220E2817390739F098
:10623000E25AFF4E40833093200E20931F0EFF91B1
:10624000EF91BF91AF919F918F917F916F915F91EE
:106250004F913F912F910F900BBE0F900FBE0F905B
:106260001F901895982F662339F48091C00085FF00
:10627000FCCF9093C60008958091C80085FFFCCFA5
:106280009093CE000895FC0110C03196662339F436
:106290008091C00085FFFCCF9093C60006C080911E
:1062A000C80085FFFCCF9093CE009081992369F7B9
:1062B00008952F923F924F925F926F927F928F92AA
:1062C0009F92AF92BF92CF92DF92EF92FF920F9385
:1062D0001F93DF93CF93CDB7DEB7A1970FB6F89496
:1062E000DEBF0FBECDBF6B017C0129013A0109A3BE
:1062F000611571058105910591F4002341F48091A8
:10630000C00085FFFCCF80E38093C6005BC0809116
:10631000C80085FFFCCF80E38093CE0053C0882463
:10632000992454011E010894211C311C8101080D7F
:10633000191DC701B601A30192010E94E335F801BE
:1063400060830894811C911CA11CB11CC701B6017B
:10635000A30192010E94E335C901DA016C017D01BC
:10636000C114D104E104F10409F79101280D391D8C
:10637000BE016F5F7F4FD501C4010197A109B1092B
:10638000AC01481959091BC0FA01E20FF31FE08163
:10639000EA3010F4E05D01C0E95CF9A1FF2339F4B3
:1063A0008091C00085FFFCCFE093C60006C08091BD
:1063B000C80085FFFCCFE093CE002150304062172B
:1063C000730711F7A1960FB6F894DEBF0FBECDBFCD
:1063D000CF91DF911F910F91FF90EF90DF90CF90C1
:1063E000BF90AF909F908F907F906F905F904F90F5
:1063F0003F902F900895EF92FF920F931F937B0190
:106400008C014423C1F588E00E94E906C801B70168
:1064100022E030E040E050E00E940536205E3E453C
:10642000484F5F4FCA01B901A80197010E94053684
:10643000C901DA010197A109B109292F3A2F4B2F80
:10644000552747FD5A950196A11DB11D2093C50002
:1064500081508093C4008091C10080618093C1000D
:106460008091C10088608093C1008091C1008068E4
:106470008093C10037C080E10E94E906C801B701DE
:1064800022E030E040E050E00E940536205E3E45CC
:10649000484F5F4FCA01B901A80197010E94053614
:1064A000C901DA010197A109B109292F3A2F4B2F10
:1064B000552747FD5A950196A11DB11D2093CD008A
:1064C00081508093CC008091C90080618093C90085
:1064D0008091C90088608093C9008091C90080685C
:1064E0008093C9001F910F91FF90EF900895109233
:1064F000250E10923F0E1092590E089582E090E002
:10650000A0E0B0E08093710E9093720EA093730E92
:10651000B093740E1092880E08950895089508950A
:106520001F920F920FB60F920BB60F9211242F935A
:106530003F934F935F936F937F938F939F93AF930B
:10654000BF93EF93FF938091B90090E0887F9070A4
:106550008036910509F4CAC081369105CCF58832A0
:10656000910509F47BC089329105B4F4803191051D
:1065700009F46FC0813191053CF4009709F414C10E
:10658000089709F01AC165C08831910509F466C001
:10659000809709F012C17DC08034910509F48DC047
:1065A0008134910544F48033910509F472C0C89791
:1065B00009F003C1F5C08035910509F472C0883532
:1065C000910509F47FC08834910509F0F6C086C0B2
:1065D0008839910509F4E0C089399105ECF48837D0
:1065E000910509F483C0893791054CF488369105EB
:1065F00009F47CC08037910509F0DFC077C0883886
:10660000910509F4C9C08039910509F475C0803835
:10661000910509F0D2C070C0803B910509F493C088
:10662000813B91054CF4803A910509F477C0883A92
:10663000910509F0C2C087C0803C910509F4B0C043
:10664000883C910509F4ACC0883B910509F0B5C0C0
:106650008FC08091900E8093BB009CC09091B50E2E
:106660008091B60E981768F49091B50EE92FF0E07E
:10667000EB56F14F80818093BB009F5F9093B50EE6
:1066800089C085ED8093BC008091BC0084FDFCCF67
:1066900092C085ED8093BC008091BC0084FDFCCF4E
:1066A0008AC08091B50E9091BB00E82FF0E0EB56C8
:1066B000F14F90838F5F8093B50E9091B50E8091CE
:1066C000B60E66C08091B50E9091BB00E82FF0E049
:1066D000EB56F14F90838F5F8093B50E85ED8093DD
:1066E000BC008091BC0084FDFCCF65C083E080933A
:1066F0008F0E1092F90E4EC08091F90E803208F084
:106700004BC08091F90E9091BB00E82FF0E0E7526A
:10671000F14F90838F5F8093F90E3CC08091F90E0A
:10672000803230F4E091F90EF0E0E752F14F108240
:106730006091F90EE091930EF091940E89ED9EE038
:1067400070E009952DC084E080938F0E1092D70ED3
:106750001092D80EE091910EF091920E09958091D1
:10676000D80E882329F481E08093D80E1092B70EBA
:106770009091D70EE92FF0E0E954F14F808180939A
:10678000BB009F5F9093D70E9091D70E8091D80E4B
:10679000981710F485EC01C085E88093BC000DC00B
:1067A00085EC8093BC0007C085ED8093BC00809190
:1067B000BC0084FDFCCF10928F0EFF91EF91BF9132
:1067C000AF919F918F917F916F915F914F913F9189
:1067D0002F910F900BBE0F900FBE0F901F9018952A
:1067E0001F920F920FB60F920BB60F9211242F9398
:1067F0003F934F935F936F937F938F939F93AF9349
:10680000BF93EF93FF938091FA0E9091FB0E892B2B
:1068100029F0E091FA0EF091FB0E0995FF91EF91AE
:10682000BF91AF919F918F917F916F915F914F91A8
:106830003F912F910F900BBE0F900FBE0F901F90A6
:1068400018951F920F920FB60F920BB60F9211244C
:106850002F933F934F935F936F937F938F939F9368
:10686000AF93BF93EF93FF938091FC0E9091FD0E39
:10687000892B29F0E091FC0EF091FD0E0995FF9116
:10688000EF91BF91AF919F918F917F916F915F91A8
:106890004F913F912F910F900BBE0F900FBE0F9015
:1068A0001F9018951F920F920FB60F920BB60F9272
:1068B00011242F933F934F935F936F937F938F9305
:1068C0009F93AF93BF93EF93FF938091FE0E9091B0
:1068D000FF0E892B29F0E091FE0EF091FF0E099535
:1068E000FF91EF91BF91AF919F918F917F916F91A8
:1068F0005F914F913F912F910F900BBE0F900FBE64
:106900000F901F9018951F920F920FB60F920BB613
:106910000F9211242F933F934F935F936F937F9325
:106920008F939F93AF93BF93EF93FF938091000F4B
:106930009091010F892B29F0E091000FF091010F48
:106940000995FF91EF91BF91AF919F918F917F91A9
:106950006F915F914F913F912F910F900BBE0F90D0
:106960000FBE0F901F9018951F920F920FB60F92A7
:106970000BB60F9211242F933F934F935F936F9316
:106980007F938F939F93AF93BF93EF93FF938091E8
:10699000020F9091030F892B29F0E091020FF091E3
:1069A000030F0995FF91EF91BF91AF919F918F9147
:1069B0007F916F915F914F913F912F910F900BBEFF
:1069C0000F900FBE0F901F9018951F920F920FB649
:1069D0000F920BB60F9211242F933F934F935F9317
:1069E0006F937F938F939F93AF93BF93EF93FF9397
:1069F0008091040F9091050F892B29F0E091040FED
:106A0000F091050F0995FF91EF91BF91AF919F9183
:106A10008F917F916F915F914F913F912F910F9047
:106A20000BBE0F900FBE0F901F9018951F920F92E4
:106A30000FB60F920BB60F9211242F933F934F93E3
:106A40005F936F937F938F939F93AF93BF93EF93D6
:106A5000FF938091060F9091070F892B29F0E09109
:106A6000060FF091070F0995FF91EF91BF91AF913C
:106A70009F918F917F916F915F914F913F912F9156
:106A80000F900BBE0F900FBE0F901F9018951F9286
:106A90000F920FB60F920BB60F9211242F933F93C4
:106AA0004F935F936F937F938F939F93AF93BF9316
:106AB000EF93FF938091080F9091090F892B29F094
:106AC000E091080FF091090F0995FF91EF91BF91A7
:106AD000AF919F918F917F916F915F914F913F9176
:106AE0002F910F900BBE0F900FBE0F901F90189517
:106AF0000895FC0180EC92E1A0E0B0E080839183F6
:106B0000A283B38381E08483E755FF4F22E0208393
:106B1000E95AF0401782168280E890E091878087DA
:106B20001286238784E798E095AB84AB8AE798E0E8
:106B300097AB86AB81E898E091AF80AF85E898E0AD
:106B400093AF82AF88E898E095AF84AF8AE898E089
:106B500097AF86AFE05CFF4F84E998E08193919313
:106B60008FE998E081939193108208958AE09FE0E5
:106B70000E94793508950895AA1BBB1B51E107C0F7
:106B8000AA1FBB1FA617B70710F0A61BB70B881FBD
:106B9000991F5A95A9F780959095BC01CD0108954C
:106BA00097FB092E07260AD077FD04D0E5DF06D033
:106BB00000201AF4709561957F4F0895F6F790952F
:106BC00081959F4F0895A1E21A2EAA1BBB1BFD01C0
:106BD0000DC0AA1FBB1FEE1FFF1FA217B307E407BC
:106BE000F50720F0A21BB30BE40BF50B661F771F14
:106BF000881F991F1A9469F76095709580959095F4
:106C00009B01AC01BD01CF01089597FB092E05261C
:106C10000ED057FD04D0D7DF0AD0001C38F45095B1
:106C20004095309521953F4F4F4F5F4F0895F6F7B0
:106C300090958095709561957F4F8F4F9F4F0895E8
:106C4000EE0FFF1F0590F491E02D09942F923F92D3
:106C50004F925F926F927F928F929F92AF92BF926C
:106C6000CF92DF92EF92FF920F931F93CF93DF9318
:106C7000CDB7DEB7CA1BDB0B0FB6F894DEBF0FBE75
:106C8000CDBF09942A88398848885F846E847D84C2
:106C90008C849B84AA84B984C884DF80EE80FD80C4
:106CA0000C811B81AA81B981CE0FD11D0FB6F8943A
:0E6CB000DEBF0FBECDBFED010895F894FFCFFB
:106CBE005374617274696E67205363616E2E2E2E4B
:106CCE00004E756D626572206F662062726F746819
:106CDE006572733A20004368616E6E656C20736551
:106CEE0074204F4B004572726F72207768696C6525
:106CFE00206368616E67696E67206368616E6E659A
:106D0E006C0050414E494420736574204F4B004532
:106D1E0072726F72207768696C65206368616E6746
:106D2E00696E672050414E49440053656375726920
:106D3E00747920656E61626C6564004572726F7263
:106D4E00207768696C6520656E61626C696E67207C
:106D5E007365637572697479004B65792073657418
:106D6E00204F4B004572726F72207768696C6520F8
:106D7E0073657474696E67204B6579004E616D653D
:106D8E0020736574204F4B004572726F72207768C6
:106D9E00696C652073657474696E67204E6F6465E7
:106DAE00206E616D65004368616E67657320737454
:106DBE006F726564204F4B004572726F7220776858
:106DCE00696C652073746F72696E672076616C757D
:106DDE006573002D6D61633A257325730044474634
:106DEE004300444746432D303200202020202020EF
:106DFE0020202020002020202020202020202020A5
:106E0E000037453030313430383532344235393050
:106E1E003030303030303030303030303030303064
:106E2E003030303030303030303030303030303054
:106E3E003000374530303035303835323445353422
:106E4E00303030300037453030303630383532342F
:106E5E004535343030303030300037453030303614
:106E6E003038353235333530303030303030003721
:106E7E0045303030373038353235333530303030CC
:106E8E0030303030300037453030303630383532F3
:106E9E0035333534303030303030003745303030E7
:106EAE0037303835323533353430303030303030AD
:106EBE0030003745303030363038353234393434AE
:106ECE0030303030303000374530303043303835A8
:106EDE00323439343430303030303030303030308D
:106EEE00303030303030300037453030303630389A
:106EFE003532353334333030303030300037453082
:106F0E003030363038353234443539303030303038
:106F1E003000374530303034303835323533344642
:106F2E003033003745303030343038353235323446
:106F3E003530450037453030303430383532343620
:106F4E003532304400374530303034303835323415
:106F5E003134333231003745303030343038353219
:106F6E003532353030330037453030303430383507
:106F7E0032353635324644003745303030343038CD
:106F8E0035323438353630370037453030303430DE
:106F9E0038353235333434304500374530303034BF
:106FAE0030383532353334333046003745303030B3
:106FBE003430383532353735324643003745303088
:106FCE003034303835323445344630380037453079
:106FDE00303034303835323445353430330037457F
:106FEE003030303430383532344534343133003784
:106FFE004530303034303835323445343930450050
:10700E00374530303034303835323433343831411E
:10701E000037453030303430383532353334443043
:10702E003500374530303034303835323439343439
:10703E00313800374530303034303835323444351D
:10704E0039464600374530303034303835323533F6
:10705E003438304100374530303034303835323501
:10706E0033344330360037453030303530383532F2
:10707E0035333446303030300037453030303530EF
:10708E0038353235323530303030300037453030EB
:10709E0030353038353235303443303030300037DB
:1070AE004530303035303835323435343530303097
:1070BE0030003745303030353038353234353434B1
:1070CE0030303030003745303030353038353235AD
:1070DE00333434303030300037453030303530389E
:1070EE00353234453446303030300037453030306C
:1070FE00353038353234333438303030300046495C
:10710E00524D574152455F46494C455F464F525F7F
:10711E00574153504D4F54452323232323230037E8
:10712E004530303035303835323533344430303008
:10713E003000374530303035303835323431344622
:10714E00303030300037453030303530383532342D
:10715E003135303030303000374530303035303822
:10716E00353234323434303030300000303030305C
:10717E0030303030303030304646464600626F6F29
:10718E00742E7478740046494C4541555800353676
:10719E003738004649524D574152452044454C45DB
:1071AE005445442424242424242424242424242420
:1071BE00242424004649524D57415245204E4F54E7
:1071CE002044454C4554454424242424242424247A
:1071DE0024242424004E45572050524F4752414DEF
:1071EE002052554E4E494E47242424242424242430
:1071FE0024242424240050524556494F55532050E0
:10720E00524F4752414D2052554E4E494E4724241F
:10721E002424242424240052455354415254494ECC
:10722E0047242424242424242424242424242424ED
:10723E0024242424242424005245414420424F4F28
:10724E00544C495354242424242424242424242414
:10725E00242424242424004552004F4B005354412F
:10726E0052542057495448204649524D5741524591
:10727E00204F4B2424242424242424242424242472
:10728E002424242424242424242424242400535475
:10729E004152542057495448204649524D57415265
:1072AE0045204552524F522424242424242424249D
:1072BE0024242424242424242424242424240023A5
:1072CE0023230050524F4752414D205245434549CA
:1072DE00564544204F4B242424242424242424249F
:1072EE002424240050524F4752414D2052454345CD
:1072FE0049564544204552524F52242424242424D6
:10730E00242424240037453030303430383532349C
:10731E003434323146002B2B2B00617464620061D1
:10732E0074636E00393630303000343937323630CF
:10733E0000393231003132003100343134302E38E0
:10734E003231370030303035332E3137333600316D
:10735E003938006572726F723A2074686520475032
:10736E00532074696D6564206F75740024505352F8
:10737E00463130302C302C25752C382C312C302ABF
:10738E0030460024475047474100244750474C4C55
:10739E00002447504753410024475047535600247A
:1073AE004750524D4300244750565447006570686D
:1073BE00656D657269732E7478740024505352464D
:1073CE003130342C25732C25732C25732C25732CDE
:1073DE0025732C25732C25732C25732A3030002011
:1073EE0000E21200002D03320312343A034503016A
:00000001FF
